<?xml version="1.0" standalone="no"?>
<!DOCTYPE svg PUBLIC "-//W3C//DTD SVG 1.1//EN" "http://www.w3.org/Graphics/SVG/1.1/DTD/svg11.dtd" >
<svg xmlns="http://www.w3.org/2000/svg">
<metadata></metadata>
<defs>
<font id="proxima_novabold" horiz-adv-x="524" >
<font-face units-per-em="2048" ascent="1618" descent="-430" />
<missing-glyph horiz-adv-x="500" />
<glyph unicode="&#xfb01;" horiz-adv-x="1187" d="M928 1116q-63 0 -109.5 46t-46.5 110t46.5 109.5t109.5 45.5q64 0 109.5 -45.5t45.5 -109.5q0 -65 -45.5 -110.5t-109.5 -45.5zM186 0v762h-163v227h163v53q0 159 92.5 251.5t241.5 92.5q114 0 189 -40l-54 -189q-36 25 -84 25q-56 0 -89 -36.5t-33 -103.5v-53h200v-227 h-200v-762h-263zM799 0v989h260v-989h-260z" />
<glyph unicode="&#xfb02;" horiz-adv-x="1187" d="M186 0v762h-163v227h163v53q0 159 92.5 251.5t241.5 92.5q114 0 189 -40l-54 -189q-36 25 -84 25q-56 0 -89 -36.5t-33 -103.5v-53h200v-227h-200v-762h-263zM799 0v1366h260v-1366h-260z" />
<glyph unicode="&#xfb03;" horiz-adv-x="1857" d="M1597 1116q-63 0 -109 46t-46 110t46 109.5t109 45.5q65 0 110.5 -45.5t45.5 -109.5t-45.5 -110t-110.5 -46zM186 0v762h-163v227h163v53q0 159 92.5 251.5t241.5 92.5q114 0 189 -40l-54 -185q-34 21 -84 21q-57 0 -89.5 -37.5t-32.5 -106.5v-49h200v-227h-200v-762 h-263zM856 0v762h-164v227h164v53q0 159 92.5 251.5t241.5 92.5q113 0 188 -40l-53 -189q-36 25 -84 25q-56 0 -89.5 -37t-33.5 -103v-53h201v-227h-201v-762h-262zM1468 0v989h261v-989h-261z" />
<glyph unicode="&#xfb04;" horiz-adv-x="1857" d="M186 0v762h-163v227h163v53q0 159 92.5 251.5t241.5 92.5q114 0 189 -40l-54 -185q-34 21 -84 21q-57 0 -89.5 -37.5t-32.5 -106.5v-49h200v-227h-200v-762h-263zM856 0v762h-164v227h164v53q0 159 92.5 251.5t241.5 92.5q113 0 188 -40l-53 -189q-36 25 -84 25 q-56 0 -89.5 -37t-33.5 -103v-53h201v-227h-201v-762h-262zM1468 0v1366h261v-1366h-261z" />
<glyph horiz-adv-x="0" />
<glyph horiz-adv-x="682" />
<glyph horiz-adv-x="0" />
<glyph horiz-adv-x="0" />
<glyph unicode="&#xd;" horiz-adv-x="0" />
<glyph unicode=" " />
<glyph unicode="!" d="M147 444l-45 922h316l-41 -922h-230zM98 143q0 68 48.5 117t115.5 49t115.5 -49t48.5 -117q0 -66 -48.5 -114.5t-115.5 -48.5t-115.5 48.5t-48.5 114.5z" />
<glyph unicode="&#x22;" horiz-adv-x="831" d="M174 768q-84 438 -84 477q0 59 41 100t100 41q57 0 99.5 -41.5t42.5 -99.5q0 -17 -21 -136.5t-42 -230.5l-21 -110h-115zM545 768q-84 438 -84 477q0 59 41.5 100t99.5 41t98.5 -41t40.5 -100q0 -17 -21 -136.5t-42 -230.5l-21 -110h-112z" />
<glyph unicode="#" horiz-adv-x="1265" d="M500 0l118 346h-194l-117 -346h-192l116 346h-196l53 166h201l110 340h-200l51 164h207l114 350h193l-115 -350h193l114 350h195l-119 -350h199l-49 -164h-205l-113 -340h207l-51 -166h-211l-115 -346h-194zM784 852h-192l-111 -340h191z" />
<glyph unicode="$" horiz-adv-x="1257" d="M1188 414q0 -175 -115 -292t-334 -140v-187h-194v185q-296 25 -484 213l158 221q136 -139 326 -174v321q-74 18 -128 36t-117 51t-102.5 74t-66.5 105t-27 144q0 160 120 275.5t321 135.5v191h194v-195q240 -23 416 -182l-162 -213q-100 95 -254 133v-287 q53 -14 92.5 -26t89 -31.5t85 -41t72 -53.5t59 -68.5t37 -86.5t14.5 -108zM403 995q0 -44 41.5 -73.5t118.5 -49.5v261q-77 -7 -118.5 -44t-41.5 -94zM721 233q84 11 127 52.5t43 95.5q0 53 -43 83.5t-127 55.5v-287z" />
<glyph unicode="%" horiz-adv-x="1550" d="M53 1042q0 147 96 245.5t250 98.5q156 0 252.5 -98.5t96.5 -245.5q0 -145 -96.5 -240t-252.5 -95q-155 0 -250.5 95t-95.5 240zM266 0l873 1366h155l-874 -1366h-154zM561 1042q0 85 -45 134t-117 49q-71 0 -116 -49.5t-45 -133.5q0 -79 45.5 -127.5t115.5 -48.5 q71 0 116.5 48.5t45.5 127.5zM805 313q0 147 96 245.5t250 98.5t251 -98.5t97 -245.5q0 -145 -97 -241.5t-251 -96.5t-250 96.5t-96 241.5zM1315 313q0 83 -46 133t-118 50t-117 -49.5t-45 -133.5q0 -82 45 -130t117 -48t118 48t46 130z" />
<glyph unicode="&#x26;" horiz-adv-x="1323" d="M1042 276q113 -124 265 -276h-332q-15 14 -103 102q-166 -127 -372 -127q-197 0 -324 103t-127 293q0 75 23 137.5t67 109.5t92 81t113 67q-92 167 -92 293q0 139 111 233t280 94q151 0 254.5 -78t103.5 -210q0 -60 -19.5 -112t-48 -87.5t-77 -70.5t-88 -56t-100.5 -49 q51 -72 116 -148l115 -139q80 119 125 264l209 -96q-89 -198 -191 -328zM512 1053q0 -74 59 -185q100 47 152.5 96.5t52.5 118.5q0 53 -34.5 84t-86.5 31q-61 0 -102 -41t-41 -104zM537 180q102 0 196 72q-122 136 -151 172q-74 91 -138 180q-118 -84 -118 -209 q0 -97 61.5 -156t149.5 -59z" />
<glyph unicode="'" horiz-adv-x="460" d="M174 768q-84 438 -84 477q0 59 41 100t100 41q57 0 99.5 -41.5t42.5 -99.5q0 -17 -21 -136.5t-42 -230.5l-21 -110h-115z" />
<glyph unicode="(" horiz-adv-x="608" d="M408 -408q-149 167 -236.5 412.5t-87.5 493.5t87.5 492t236.5 413l163 -123q-107 -193 -156.5 -375t-49.5 -407t49.5 -407.5t156.5 -371.5z" />
<glyph unicode=")" horiz-adv-x="608" d="M244 498q0 225 -50 407t-159 375l164 123q151 -169 239 -413t88 -492t-88.5 -493.5t-238.5 -412.5l-164 127q108 189 158.5 371.5t50.5 407.5z" />
<glyph unicode="*" horiz-adv-x="718" d="M295 750l10 225l-190 -121l-64 111l199 102l-199 102l64 113l190 -121l-10 225h129l-10 -225l188 121l66 -113l-199 -102l199 -102l-66 -111l-188 121l10 -225h-129z" />
<glyph unicode="+" horiz-adv-x="1032" d="M606 610v-415h-178v415h-369v162h369v399h178v-399h367v-162h-367z" />
<glyph unicode="," d="M229 -281l-112 93q52 27 98.5 82.5t58.5 107.5q-18 -6 -38 -6q-59 0 -99.5 42t-40.5 107q0 67 47.5 115.5t112.5 48.5q76 0 130 -56.5t54 -152.5q0 -112 -57 -211.5t-154 -169.5z" />
<glyph unicode="-" horiz-adv-x="614" d="M61 385v221h492v-221h-492z" />
<glyph unicode="." d="M96 143q0 67 49 116.5t117 49.5t117 -49.5t49 -116.5t-49 -116.5t-117 -49.5t-117 49.5t-49 116.5z" />
<glyph unicode="/" horiz-adv-x="673" d="M0 -41l485 1448h189l-486 -1448h-188z" />
<glyph unicode="0" horiz-adv-x="1269" d="M70 682q0 136 34 259t101 224t178 161t252 60t251.5 -60t177.5 -161t101.5 -224t34.5 -259q0 -108 -21 -209t-66.5 -192t-110.5 -158.5t-159.5 -107.5t-207.5 -40q-141 0 -252 60.5t-178 162t-101 225t-34 259.5zM903 682q0 98 -15 176.5t-45.5 140.5t-83.5 95.5 t-124 33.5q-72 0 -125 -33.5t-84 -95.5t-46 -140.5t-15 -176.5t15 -177t46 -141.5t84 -96.5t125 -34q94 0 155.5 61t87 158.5t25.5 229.5z" />
<glyph unicode="1" horiz-adv-x="841" d="M414 0v991l-226 -231l-165 174l430 432h254v-1366h-293z" />
<glyph unicode="2" horiz-adv-x="1228" d="M96 0v229q183 135 292 219t202 163t137.5 133t68 104.5t23.5 101.5q0 85 -65 131.5t-158 46.5q-215 0 -365 -157l-165 192q96 111 236 167t290 56q146 0 264 -51.5t188 -152t70 -232.5q0 -168 -135 -329.5t-424 -364.5h569v-256h-1028z" />
<glyph unicode="3" horiz-adv-x="1202" d="M41 195l152 190q69 -72 172 -114t204 -42q122 0 190 48.5t68 128.5q0 83 -66 122t-208 39q-150 0 -170 -2v254q25 -2 170 -2q117 0 184.5 38.5t67.5 113.5q0 79 -71 121.5t-183 42.5q-198 0 -348 -144l-144 180q193 217 523 217q239 0 377.5 -99.5t138.5 -270.5 q0 -122 -88 -205.5t-211 -105.5q54 -5 108.5 -28.5t102.5 -63t78 -101.5t30 -135q0 -179 -147 -290.5t-391 -111.5q-180 0 -319.5 61t-219.5 159z" />
<glyph unicode="4" horiz-adv-x="1222" d="M705 0v283h-654v229l543 854h401v-827h176v-256h-176v-283h-290zM705 1108l-369 -569h369v569z" />
<glyph unicode="5" horiz-adv-x="1245" d="M100 180l160 197q145 -148 365 -148q118 0 186 58.5t68 146.5q0 95 -65.5 152t-180.5 57q-168 0 -287 -113l-203 56v780h938v-250h-653v-342q58 50 138 81.5t169 31.5q117 0 216 -51.5t161 -154t62 -235.5q0 -216 -149 -343.5t-398 -127.5q-338 0 -527 205z" />
<glyph unicode="6" horiz-adv-x="1245" d="M70 680q0 208 74.5 366.5t219.5 249t343 90.5q239 0 403 -141l-131 -219q-59 55 -122 82t-150 27q-152 0 -247 -114.5t-95 -281.5q0 -20 2 -28q50 73 146 123.5t204 50.5q94 0 177 -28.5t147.5 -82.5t102.5 -139t38 -191q0 -202 -146 -335.5t-377 -133.5 q-151 0 -266.5 55.5t-184.5 153.5t-103.5 223t-34.5 273zM887 432q0 104 -73 157.5t-181 53.5q-75 0 -145.5 -35t-120.5 -96q5 -53 22 -100t48.5 -90t85 -68t122.5 -25q111 0 176.5 62t65.5 141z" />
<glyph unicode="7" horiz-adv-x="1116" d="M248 0l489 1110h-688v256h1026v-203l-508 -1163h-319z" />
<glyph unicode="8" horiz-adv-x="1241" d="M72 354q0 120 82 213t211 138q-124 41 -197.5 121t-73.5 200q0 92 46 163.5t123 113t168 62.5t190 21q98 0 189 -21t168 -62.5t123 -113t46 -163.5q0 -120 -74.5 -199.5t-198.5 -121.5q129 -45 212 -138t83 -213q0 -122 -78.5 -210t-200 -128.5t-269.5 -40.5 q-87 0 -167 14.5t-150 45.5t-121.5 75t-81 106.5t-29.5 137.5zM850 981q0 71 -64 113.5t-165 42.5q-103 0 -167.5 -42.5t-64.5 -113.5q0 -37 23.5 -68.5t61.5 -50.5t74.5 -30.5t72.5 -16.5q50 7 98 24t89.5 55t41.5 87zM874 389q0 42 -27 77.5t-68.5 57t-82 34.5t-75.5 17 q-36 -4 -76.5 -17t-82 -34.5t-68.5 -57t-27 -77.5q0 -74 72.5 -119t181.5 -45q107 0 180 45.5t73 118.5z" />
<glyph unicode="9" horiz-adv-x="1245" d="M137 119l129 217q58 -53 122 -79t151 -26q106 0 185 56t118 144.5t39 193.5v28q-53 -74 -149.5 -125t-203.5 -51q-93 0 -176.5 29t-149 83t-103.5 139.5t-38 191.5q0 202 147 335.5t378 133.5q121 0 219.5 -36.5t166.5 -100.5t114 -154t67 -194t21 -222 q0 -207 -74 -365.5t-219 -249t-342 -90.5q-243 0 -402 142zM877 850q-4 53 -21 101t-48.5 91t-85.5 69t-124 26q-110 0 -175 -63t-65 -142q0 -103 72.5 -156t179.5 -53q77 0 148.5 33.5t118.5 93.5z" />
<glyph unicode=":" horiz-adv-x="514" d="M96 838q0 68 49 117t117 49t117 -49t49 -117t-49 -117t-117 -49t-117 49t-49 117zM96 143q0 67 49 116.5t117 49.5t117 -49.5t49 -116.5t-49 -116.5t-117 -49.5t-117 49.5t-49 116.5z" />
<glyph unicode=";" d="M262 672q-67 0 -116.5 50t-49.5 116q0 68 49 117t117 49t117 -49t49 -117q0 -66 -49.5 -116t-116.5 -50zM229 -281l-112 93q52 29 98.5 85t58.5 109q-12 -8 -38 -8q-59 0 -99.5 41.5t-40.5 105.5q0 67 47.5 115.5t112.5 48.5q76 0 130 -56.5t54 -152.5q0 -112 -57 -211.5 t-154 -169.5z" />
<glyph unicode="&#x3c;" horiz-adv-x="1032" d="M59 592v186l914 410v-193l-727 -311l727 -307v-193z" />
<glyph unicode="=" horiz-adv-x="1032" d="M59 795v163h914v-163h-914zM59 412v159h914v-159h-914z" />
<glyph unicode="&#x3e;" horiz-adv-x="1032" d="M59 184v193l727 307l-727 311v193l914 -410v-186z" />
<glyph unicode="?" horiz-adv-x="933" d="M297 598q0 41 12 77.5t26.5 60t44 52t46 41t51.5 37.5q41 29 61 45.5t39 44t19 56.5q0 51 -40 83.5t-120 32.5q-147 0 -252 -127l-166 187q81 95 198.5 146.5t250.5 51.5q196 0 311 -89.5t115 -233.5q0 -49 -13.5 -92.5t-31 -73.5t-49.5 -61.5t-54 -49t-59 -43.5 q-37 -27 -53 -40t-39.5 -36.5t-33 -47t-9.5 -50.5q0 -53 37 -86l-223 -65q-68 74 -68 180zM297 143q0 67 49.5 116.5t116.5 49.5t116.5 -49.5t49.5 -116.5t-49.5 -116.5t-116.5 -49.5t-116.5 49.5t-49.5 116.5z" />
<glyph unicode="@" horiz-adv-x="1603" d="M72 500q0 160 67.5 309.5t178.5 258t260.5 174t306.5 65.5q190 0 339 -86t227.5 -228.5t78.5 -312.5q0 -123 -38 -223t-98.5 -160t-130.5 -91.5t-139 -31.5q-87 0 -137.5 44t-60.5 108l-4 12q-55 -76 -133 -120t-160 -44q-147 0 -232.5 96t-85.5 248q0 133 66 250 t172.5 184.5t224.5 67.5q89 0 155.5 -38t100.5 -99l23 108h231l-104 -499q-6 -36 -6 -50q0 -45 20.5 -68.5t54.5 -23.5q32 0 64.5 19.5t62 57.5t48 104t18.5 149q0 245 -154.5 396t-410.5 151q-143 0 -277 -59.5t-232 -158t-157 -231.5t-59 -274q0 -159 74 -289.5 t206.5 -205.5t296.5 -75q196 0 375 113l43 -61q-200 -129 -426 -129q-183 0 -332 85t-233 232t-84 326zM946 492l51 239q-21 42 -63 73.5t-103 31.5q-119 0 -200.5 -90t-81.5 -207q0 -80 46.5 -130.5t123.5 -50.5q128 0 227 134z" />
<glyph unicode="A" horiz-adv-x="1400" d="M1092 0l-86 236h-611l-86 -236h-319l528 1366h365l526 -1366h-317zM700 1114l-227 -627h453z" />
<glyph unicode="B" horiz-adv-x="1357" d="M135 0v1366h719q94 0 170.5 -28.5t124 -77.5t73 -111t25.5 -131q0 -124 -67 -208t-168 -105q110 -17 186 -113t76 -223q0 -161 -104.5 -265t-292.5 -104h-742zM426 817h365q72 0 115.5 42.5t43.5 109.5q0 64 -43.5 106.5t-115.5 42.5h-365v-301zM426 248h375q82 0 129 44 t47 118q0 68 -46.5 113.5t-129.5 45.5h-375v-321z" />
<glyph unicode="C" horiz-adv-x="1406" d="M786 -25q-148 0 -280 52t-228 143.5t-152 224.5t-56 287t56 287t152 224.5t228 143.5t280 52q112 0 207.5 -27.5t165.5 -76.5t120 -105t89 -125l-250 -123q-45 87 -133.5 142.5t-198.5 55.5q-179 0 -298 -127.5t-119 -320.5t119 -321t298 -128q110 0 199 55.5t133 143.5 l250 -121q-194 -336 -582 -336z" />
<glyph unicode="D" horiz-adv-x="1470" d="M135 0v1366h539q212 0 377 -84.5t256.5 -240.5t91.5 -359t-91.5 -358.5t-256.5 -239.5t-377 -84h-539zM426 256h248q196 0 312 123t116 303q0 189 -112 308.5t-316 119.5h-248v-854z" />
<glyph unicode="E" horiz-adv-x="1193" d="M135 0v1366h967v-250h-676v-297h661v-250h-661v-317h676v-252h-967z" />
<glyph unicode="F" horiz-adv-x="1169" d="M135 0v1366h967v-250h-676v-297h661v-250h-661v-569h-291z" />
<glyph unicode="G" horiz-adv-x="1474" d="M70 682q0 210 99 373t263.5 248.5t364.5 85.5q198 0 338.5 -82t226.5 -217l-242 -132q-50 76 -135 124t-188 48q-186 0 -307 -127t-121 -321t121 -321.5t307 -127.5q88 0 167 30.5t128 74.5v166h-365v250h651v-523q-230 -258 -581 -258q-149 0 -282 51t-231.5 141.5 t-156 224.5t-57.5 292z" />
<glyph unicode="H" horiz-adv-x="1497" d="M1071 0v573h-645v-573h-291v1366h291v-537h645v537h293v-1366h-293z" />
<glyph unicode="I" horiz-adv-x="561" d="M135 0v1366h291v-1366h-291z" />
<glyph unicode="J" horiz-adv-x="995" d="M12 109l127 223q103 -99 217 -99q97 0 155 60t58 160v913h291v-917q0 -158 -62.5 -266t-168.5 -158t-250 -50q-230 0 -367 134z" />
<glyph unicode="K" horiz-adv-x="1302" d="M946 0l-414 547l-106 -127v-420h-291v1366h291v-610l483 610h359l-543 -641l580 -725h-359z" />
<glyph unicode="L" horiz-adv-x="1071" d="M135 0v1366h291v-1110h578v-256h-869z" />
<glyph unicode="M" horiz-adv-x="1751" d="M1323 0v983l-385 -983h-127l-385 983v-983h-291v1366h408l331 -852l332 852h410v-1366h-293z" />
<glyph unicode="N" horiz-adv-x="1492" d="M1077 0l-651 918v-918h-291v1366h299l633 -885v885h291v-1366h-281z" />
<glyph unicode="O" horiz-adv-x="1566" d="M70 682q0 152 53.5 284t147.5 224.5t226.5 145.5t284.5 53q205 0 368 -90t255 -252t92 -365t-92 -365t-255 -252t-368 -90q-152 0 -284.5 53t-226.5 145.5t-147.5 224.5t-53.5 284zM1198 682q0 195 -114.5 321.5t-301.5 126.5q-186 0 -299.5 -126.5t-113.5 -321.5 q0 -194 113.5 -321.5t299.5 -127.5t301 127.5t115 321.5z" />
<glyph unicode="P" horiz-adv-x="1277" d="M135 0v1366h639q108 0 196.5 -35t145 -95t87 -139.5t30.5 -170.5q0 -90 -30.5 -169t-87.5 -139t-145 -94.5t-196 -34.5h-348v-489h-291zM936 928q0 84 -57 136t-144 52h-309v-377h309q88 0 144.5 52t56.5 137z" />
<glyph unicode="Q" horiz-adv-x="1566" d="M1497 682q0 -289 -178 -483l100 -117l-202 -166l-109 129q-149 -70 -326 -70q-152 0 -284.5 53t-226.5 145.5t-147.5 224.5t-53.5 284t53.5 284t147.5 224.5t226.5 145.5t284.5 53q205 0 368 -90t255 -252t92 -365zM782 233q77 0 144 25l-156 182l203 164l155 -182 q70 112 70 260q0 195 -114.5 321.5t-301.5 126.5q-186 0 -299.5 -126.5t-113.5 -321.5q0 -194 113.5 -321.5t299.5 -127.5z" />
<glyph unicode="R" horiz-adv-x="1316" d="M907 0l-268 489h-213v-489h-291v1366h639q210 0 334.5 -123t124.5 -317q0 -87 -25.5 -160t-69 -121.5t-95 -79.5t-109.5 -45l307 -520h-334zM936 928q0 85 -58 136.5t-147 51.5h-305v-377h305q89 0 147 52t58 137z" />
<glyph unicode="S" horiz-adv-x="1228" d="M41 193l160 221q79 -82 190 -133.5t244 -51.5q113 0 175 45.5t62 108.5q0 30 -14.5 54t-36 40.5t-61 32t-74.5 25t-90 22.5q-189 43 -273 80q-206 91 -233 276q-4 30 -4 62q0 175 141.5 293t376.5 118q328 0 533 -190l-162 -213q-80 74 -183.5 112t-207.5 38 q-96 0 -148.5 -38.5t-52.5 -101.5q0 -23 8 -41t28.5 -32.5t39.5 -25t56.5 -22t63.5 -18t76 -18.5q49 -11 77.5 -18t77 -21t79 -26t72 -32t67.5 -41t55.5 -51t45.5 -63.5t27 -77t11 -92.5q0 -196 -139.5 -317.5t-406.5 -121.5q-362 0 -580 218z" />
<glyph unicode="T" horiz-adv-x="1191" d="M451 0v1110h-400v256h1090v-256h-398v-1110h-292z" />
<glyph unicode="U" horiz-adv-x="1490" d="M135 545v821h295v-811q0 -147 81.5 -234.5t236.5 -87.5q152 0 232.5 87.5t80.5 234.5v811h295v-819q0 -264 -153.5 -418t-454.5 -154q-303 0 -458 154t-155 416z" />
<glyph unicode="V" horiz-adv-x="1400" d="M518 0l-528 1366h332l378 -1051l377 1051h332l-526 -1366h-365z" />
<glyph unicode="W" horiz-adv-x="1880" d="M1180 0l-240 938l-238 -938h-309l-391 1366h326l239 -987l260 987h228l258 -987l237 987h328l-389 -1366h-309z" />
<glyph unicode="X" horiz-adv-x="1368" d="M1026 0l-342 500l-344 -500h-346l495 700l-464 666h346l313 -467l309 467h350l-464 -664l495 -702h-348z" />
<glyph unicode="Y" horiz-adv-x="1320" d="M516 0v559l-526 807h332l340 -549l335 549h332l-522 -807v-559h-291z" />
<glyph unicode="Z" horiz-adv-x="1212" d="M86 0v236l645 874h-645v256h1026v-233l-645 -877h659v-256h-1040z" />
<glyph unicode="[" horiz-adv-x="573" d="M96 -389v1778h443v-175h-256v-1429h256v-174h-443z" />
<glyph unicode="\" horiz-adv-x="673" d="M0 1407h188l486 -1448h-189z" />
<glyph unicode="]" horiz-adv-x="573" d="M35 -389v174h256v1429h-256v175h442v-1778h-442z" />
<glyph unicode="^" horiz-adv-x="903" d="M672 682l-221 506l-220 -506h-192l319 684h191l315 -684h-192z" />
<glyph unicode="_" horiz-adv-x="1155" d="M-6 -256v174h1167v-174h-1167z" />
<glyph unicode="`" horiz-adv-x="514" d="M332 1139l-332 295h240l274 -295h-182z" />
<glyph unicode="a" horiz-adv-x="1112" d="M723 0v102q-51 -60 -133.5 -93.5t-179.5 -33.5q-61 0 -120.5 21t-110.5 60t-82 103.5t-31 143.5q0 83 31 146t82.5 98.5t109.5 53t121 17.5q100 0 182 -30.5t131 -89.5v137q0 75 -59.5 120.5t-157.5 45.5q-163 0 -289 -117l-98 174q178 156 432 156q89 0 163 -19 t136.5 -61t97.5 -117t35 -178v-639h-260zM723 238v122q-31 42 -87.5 64t-121.5 22q-79 0 -132.5 -40.5t-53.5 -108.5q0 -67 53.5 -106t132.5 -39q65 0 121.5 22t87.5 64z" />
<glyph unicode="b" horiz-adv-x="1200" d="M129 0v1366h260v-504q58 74 137 113t168 39q193 0 316 -140.5t123 -379.5q0 -241 -123 -380t-316 -139q-183 0 -305 150v-125h-260zM389 317q32 -47 96 -78.5t127 -31.5q114 0 183 79t69 208t-69 208.5t-183 79.5q-63 0 -127 -32.5t-96 -81.5v-351z" />
<glyph unicode="c" horiz-adv-x="1021" d="M66 496q0 227 147.5 372.5t376.5 145.5q141 0 238 -50.5t153 -129.5l-170 -158q-73 106 -209 106q-119 0 -193.5 -79t-74.5 -207q0 -129 74.5 -209t193.5 -80q134 0 209 106l170 -157q-57 -79 -154 -130t-237 -51q-229 0 -376.5 146.5t-147.5 374.5z" />
<glyph unicode="d" horiz-adv-x="1200" d="M809 0v125q-122 -150 -305 -150q-193 0 -315.5 138.5t-122.5 380.5q0 239 122.5 379.5t315.5 140.5q89 0 168 -39t137 -113v504h262v-1366h-262zM809 319v351q-34 50 -96.5 81t-128.5 31q-111 0 -180.5 -79.5t-69.5 -208.5q0 -127 70 -207t180 -80q66 0 128.5 31t96.5 81 z" />
<glyph unicode="e" horiz-adv-x="1132" d="M66 496q0 143 64.5 261t182.5 187.5t265 69.5q221 0 358 -151t137 -394v-57h-735q13 -99 88.5 -164.5t196.5 -65.5q70 0 144 27t120 72l114 -168q-73 -67 -180.5 -102.5t-226.5 -35.5q-229 0 -378.5 143.5t-149.5 377.5zM578 807q-58 0 -104.5 -20t-74.5 -53t-44 -70 t-21 -76h487q-2 38 -16.5 74.5t-42 70t-75.5 54t-109 20.5z" />
<glyph unicode="f" horiz-adv-x="669" d="M186 0v762h-163v227h163v53q0 159 92.5 251.5t241.5 92.5q114 0 189 -40l-54 -185q-34 21 -84 21q-57 0 -89.5 -37.5t-32.5 -106.5v-49h200v-227h-200v-762h-263z" />
<glyph unicode="g" horiz-adv-x="1198" d="M109 -254l116 188q111 -122 310 -122q51 0 96 12t86 39t65.5 77.5t24.5 120.5v101q-124 -156 -305 -156q-193 0 -314.5 132t-121.5 372q0 237 121.5 370.5t314.5 133.5q183 0 305 -152v127h262v-921q0 -109 -32.5 -193t-84.5 -135t-124 -84t-143 -45t-150 -12 q-132 0 -234 34t-192 113zM807 350v320q-32 49 -95 80.5t-128 31.5q-112 0 -181 -73t-69 -199t69 -199t181 -73q64 0 127 32t96 80z" />
<glyph unicode="h" horiz-adv-x="1187" d="M799 0v602q0 98 -47.5 139t-137.5 41q-70 0 -128.5 -33.5t-96.5 -82.5v-666h-260v1366h260v-506q53 64 144 109t204 45q160 0 241 -82t81 -230v-702h-260z" />
<glyph unicode="i" horiz-adv-x="518" d="M258 1116q-63 0 -109.5 46t-46.5 110t46.5 109.5t109.5 45.5q65 0 110.5 -45.5t45.5 -109.5t-46 -110t-110 -46zM129 0v989h260v-989h-260z" />
<glyph unicode="j" horiz-adv-x="518" d="M258 1116q-63 0 -109.5 46t-46.5 110t46.5 109.5t109.5 45.5q65 0 110.5 -45.5t45.5 -109.5t-46 -110t-110 -46zM389 989v-1016q0 -174 -89 -274t-263 -100q-61 0 -113 10l17 213q24 -6 57 -6q60 0 95.5 38.5t35.5 118.5v1016h260z" />
<glyph unicode="k" horiz-adv-x="1095" d="M770 0l-262 381l-119 -127v-254h-260v1366h260v-817l375 440h319l-391 -448l404 -541h-326z" />
<glyph unicode="l" horiz-adv-x="518" d="M129 0v1366h260v-1366h-260z" />
<glyph unicode="m" horiz-adv-x="1744" d="M1356 0v625q0 73 -36 115t-112 42q-63 0 -117.5 -34t-86.5 -80v-668h-263v625q0 157 -147 157q-62 0 -117 -34.5t-88 -81.5v-666h-260v989h260v-129q37 54 129 104t195 50q107 0 176.5 -47t97.5 -133q46 73 139.5 126.5t200.5 53.5q139 0 215 -75t76 -224v-715h-262z" />
<glyph unicode="n" horiz-adv-x="1185" d="M797 0v598q0 98 -47.5 141t-135.5 43q-71 0 -130 -33.5t-95 -82.5v-666h-260v989h260v-129q54 65 144 109.5t202 44.5q159 0 240.5 -83.5t81.5 -232.5v-698h-260z" />
<glyph unicode="o" horiz-adv-x="1175" d="M588 -25q-158 0 -278.5 71.5t-182 189t-61.5 260.5q0 142 61.5 258.5t182 188t278.5 71.5q159 0 280 -71.5t182.5 -188t61.5 -258.5q0 -106 -36.5 -200.5t-102 -166t-165.5 -113t-220 -41.5zM588 207q117 0 185.5 83.5t68.5 205.5q0 121 -68.5 203.5t-185.5 82.5 t-184.5 -82.5t-67.5 -203.5q0 -122 67.5 -205.5t184.5 -83.5z" />
<glyph unicode="p" horiz-adv-x="1198" d="M389 -377h-260v1366h260v-125q119 150 305 150q195 0 317 -138t122 -380t-122 -381.5t-317 -139.5q-186 0 -305 152v-504zM862 496q0 128 -69 207t-181 79q-63 0 -127 -32.5t-96 -79.5v-351q33 -47 97 -79.5t126 -32.5q112 0 181 80t69 209z" />
<glyph unicode="q" horiz-adv-x="1198" d="M1069 -377h-262v504q-119 -152 -305 -152q-193 0 -314.5 139.5t-121.5 381.5t121 380t315 138q91 0 170.5 -39t134.5 -111v125h262v-1366zM807 319v351q-33 48 -96 80t-127 32q-111 0 -180.5 -79.5t-69.5 -206.5q0 -129 69.5 -209t180.5 -80q63 0 126.5 32.5t96.5 79.5z " />
<glyph unicode="r" horiz-adv-x="737" d="M129 0v989h260v-135q55 69 141 113.5t175 44.5v-254q-27 6 -72 6q-66 0 -139 -32.5t-105 -78.5v-653h-260z" />
<glyph unicode="s" horiz-adv-x="976" d="M43 129l113 182q57 -54 155.5 -94.5t186.5 -40.5q83 0 124.5 26.5t41.5 73.5q0 25 -14 44t-44 32.5t-61 22t-80 18.5q-41 8 -59 11.5t-58 13.5t-60.5 17.5t-54 22t-52 29.5t-42 37.5t-35 47.5t-20 58.5t-8.5 71.5q0 131 109 221.5t296 90.5q232 0 398 -135l-103 -179 q-46 49 -126 82t-167 33q-71 0 -113 -24.5t-42 -67.5q0 -42 46 -64.5t142 -42.5q39 -7 59.5 -11.5t59 -14t61 -18t55.5 -23.5t53 -31t43.5 -39.5t36 -49.5t21 -61t8.5 -75q0 -140 -114 -229t-314 -89q-129 0 -246.5 41t-195.5 113z" />
<glyph unicode="t" horiz-adv-x="692" d="M461 -25q-137 0 -209 69.5t-72 201.5v516h-164v227h164v271h262v-271h201v-227h-201v-447q0 -47 24 -77.5t66 -30.5q28 0 54 9t37 20l55 -197q-71 -64 -217 -64z" />
<glyph unicode="u" horiz-adv-x="1185" d="M797 0v125q-58 -65 -146.5 -107.5t-201.5 -42.5q-159 0 -239.5 82t-80.5 230v702h260v-600q0 -98 47 -140t135 -42q70 0 129 32t97 80v670h260v-989h-260z" />
<glyph unicode="v" horiz-adv-x="1050" d="M385 0l-397 989h278l258 -688l258 688h281l-397 -989h-281z" />
<glyph unicode="w" horiz-adv-x="1574" d="M997 0l-209 674l-208 -674h-279l-301 989h270l185 -665l217 665h231l217 -665l185 665h270l-301 -989h-277z" />
<glyph unicode="x" horiz-adv-x="1032" d="M741 0l-225 334l-227 -334h-289l350 508l-330 481h291l205 -305l203 305h291l-332 -481l354 -508h-291z" />
<glyph unicode="y" horiz-adv-x="1050" d="M133 -154q37 -16 82 -16q103 0 137 72l37 84l-401 1003h278l258 -688l258 688h281l-465 -1151q-52 -131 -144 -183.5t-231 -55.5q-71 0 -129 14z" />
<glyph unicode="z" horiz-adv-x="980" d="M86 0v195l446 567h-446v227h799v-188l-453 -574h461v-227h-807z" />
<glyph unicode="{" horiz-adv-x="589" d="M430 -389q-129 0 -223 90t-94 236v352q0 60 -27.5 98.5t-79.5 38.5v147q52 0 79.5 39t27.5 99v350q0 147 94 237.5t223 90.5h125v-175h-125q-54 0 -90.5 -42t-36.5 -109v-379q0 -144 -94 -184q94 -40 94 -185v-376q0 -68 36.5 -111t90.5 -43h125v-174h-125z" />
<glyph unicode="|" horiz-adv-x="442" d="M135 -41v1448h174v-1448h-174z" />
<glyph unicode="}" horiz-adv-x="589" d="M35 -215h125q54 0 91.5 43t37.5 111v376q0 145 94 185q-94 40 -94 184v379q0 67 -37.5 109t-91.5 42h-125v175h125q129 0 223 -90.5t94 -237.5v-350q0 -60 27.5 -99t79.5 -39v-147q-52 0 -79.5 -38.5t-27.5 -98.5v-352q0 -146 -94 -236t-223 -90h-125v174z" />
<glyph unicode="~" horiz-adv-x="1044" d="M991 1346q-7 -83 -17 -148t-32.5 -134t-54 -115t-83 -75.5t-118.5 -29.5q-45 0 -82 15.5t-58.5 35t-42 56.5t-29 59.5t-21.5 64.5q-10 29 -15 42t-14.5 33.5t-17.5 29.5t-20.5 16.5t-27.5 7.5q-98 0 -127 -360l-178 20q7 81 17.5 146.5t33 134t54.5 114.5t83 75.5 t117 29.5q46 0 83 -15.5t59.5 -35.5t42.5 -57t29 -60.5t22 -65.5q30 -84 47 -105q19 -24 45 -24q101 0 129 365z" />
<glyph unicode="&#xa0;" />
<glyph unicode="&#xa1;" d="M260 1012q68 0 117 -49t49 -117q0 -66 -49.5 -116t-116.5 -50t-115.5 49.5t-48.5 116.5q0 68 48.5 117t115.5 49zM145 543h232l43 -920h-316z" />
<glyph unicode="&#xa2;" horiz-adv-x="1021" d="M682 223q74 20 129 90l170 -157q-101 -144 -299 -174v-187h-188v189q-192 29 -310 169t-118 343q0 201 118 341t310 169v151h188v-149q198 -30 299 -174l-170 -158q-54 72 -129 92v-545zM334 496q0 -95 43 -165.5t117 -99.5v527q-74 -28 -117 -97t-43 -165z" />
<glyph unicode="&#xa3;" horiz-adv-x="1126" d="M987 307l115 -231q-99 -103 -301 -103q-45 0 -90.5 10t-66 18t-64.5 26q-98 36 -150 36q-97 0 -237 -77l-99 198q101 48 162 114.5t61 141.5q0 51 -24 111h-246v166h139q-46 67 -70 122.5t-24 123.5q0 94 43.5 175t114 134.5t159.5 83.5t181 30q346 0 475 -247l-231 -135 q-27 65 -83 105t-126 40q-92 0 -153.5 -53.5t-61.5 -139.5q0 -40 12.5 -79.5t26.5 -63.5t40 -63q4 -5 11.5 -16.5t11.5 -16.5h293v-166h-232q2 -12 2 -39q0 -70 -37 -131t-96 -96q43 14 103 14q58 0 143 -35q72 -31 123 -31q118 0 176 74z" />
<glyph unicode="&#xa4;" horiz-adv-x="1275" d="M1161 682q0 -161 -84 -289l150 -145l-156 -152l-153 150q-121 -70 -281 -70q-158 0 -283 72l-149 -152l-156 152l148 147q-82 127 -82 287q0 162 84 287l-150 151l154 152l155 -156q118 70 279 70q158 0 281 -68l153 154l156 -154l-150 -149q84 -125 84 -287zM637 410 q123 0 192.5 78t69.5 194q0 114 -70 192t-192 78q-120 0 -190 -78t-70 -192q0 -115 70 -193.5t190 -78.5z" />
<glyph unicode="&#xa5;" horiz-adv-x="1320" d="M1329 1366l-420 -645h367v-162h-469v-164h469v-159h-469v-236h-291v236h-467v159h467v164h-467v162h363l-422 645h332l340 -549l335 549h332z" />
<glyph unicode="&#xa6;" horiz-adv-x="442" d="M135 760v647h174v-647h-174zM135 -41v647h174v-647h-174z" />
<glyph unicode="&#xa7;" horiz-adv-x="991" d="M743 406q170 -75 170 -252q0 -149 -119 -234.5t-309 -85.5q-261 0 -438 162l109 164q59 -59 147.5 -102.5t181.5 -43.5q82 0 130.5 31t48.5 88q0 19 -7 35t-25.5 29t-32.5 21.5t-47 18.5t-50 14.5t-58 14.5l-57 13.5t-55.5 15t-57 19.5t-51.5 23.5t-49 29.5t-39 37 t-32 46.5t-19 56.5t-8 68q0 95 59.5 161t140.5 95q-200 76 -200 259q0 128 113 212t292 84q255 0 398 -139l-103 -153q-52 52 -128.5 81t-155.5 29q-76 0 -120 -29t-44 -81q0 -25 12 -42.5t48.5 -31.5t55.5 -19.5t79 -18.5l12 -3q47 -10 75.5 -16.5t73 -20.5t72.5 -28 t61 -38t51.5 -52t31.5 -68t13 -88q0 -85 -43.5 -153t-126.5 -109zM487 766q-89 -21 -124 -58t-35 -94q0 -28 13 -50t30.5 -36.5t49 -26.5t56 -19t62.5 -15q61 27 89.5 62.5t28.5 88.5q0 109 -170 148z" />
<glyph unicode="&#xa8;" horiz-adv-x="866" d="M217 1135q-59 0 -99 39.5t-40 99.5q0 57 40.5 97t98.5 40q57 0 97 -40t40 -97q0 -60 -40 -99.5t-97 -39.5zM649 1135q-58 0 -98.5 40t-40.5 99q0 57 41 97t98 40t98 -40t41 -97q0 -59 -40.5 -99t-98.5 -40z" />
<glyph unicode="&#xa9;" horiz-adv-x="1593" d="M797 -25q-191 0 -354 95t-258 258t-95 354q0 192 95 355t258 257.5t354 94.5q144 0 275 -56t225 -150.5t150 -225.5t56 -275q0 -143 -56 -274t-150 -226t-225 -151t-275 -56zM797 1315q-170 0 -316 -85t-231.5 -231t-85.5 -317q0 -170 85.5 -316t231.5 -231.5t316 -85.5 q171 0 317 85.5t231 231.5t85 316q0 128 -50.5 245.5t-135 202t-202 135t-245.5 50.5zM1112 389q-120 -139 -305 -139q-179 0 -302.5 124t-123.5 310q0 185 123.5 307.5t302.5 122.5q188 0 303 -137l-63 -62q-40 54 -104 85.5t-136 31.5q-138 0 -235 -98t-97 -250 q0 -150 97.5 -251t234.5 -101q73 0 137.5 32t104.5 87z" />
<glyph unicode="&#xaa;" horiz-adv-x="788" d="M498 668v65q-74 -82 -209 -82q-90 0 -158 56t-68 157q0 99 68 153t158 54q139 0 209 -78v82q0 51 -39 81t-103 30q-49 0 -99 -22t-89 -62l-72 123q119 102 293 102q61 0 111.5 -12.5t93.5 -40.5t67.5 -79.5t24.5 -123.5v-403h-188zM498 827v72q-20 27 -55.5 42t-75.5 15 q-48 0 -82.5 -25t-34.5 -67q0 -45 34 -70.5t83 -25.5q39 0 75 16t56 43z" />
<glyph unicode="&#xab;" horiz-adv-x="1079" d="M389 129l-328 369l328 362h240l-328 -362l328 -369h-240zM778 129l-327 369l327 362h240l-328 -362l328 -369h-240z" />
<glyph unicode="&#xac;" horiz-adv-x="1054" d="M973 412h-166v383h-748v163h914v-546z" />
<glyph unicode="&#xad;" horiz-adv-x="614" d="M61 385v221h492v-221h-492z" />
<glyph unicode="&#xae;" horiz-adv-x="1011" d="M506 518q-180 0 -307 127t-127 307q0 181 127 307.5t307 126.5q119 0 219 -57.5t157.5 -157.5t57.5 -219q0 -180 -126.5 -307t-307.5 -127zM506 1321q-154 0 -261.5 -107.5t-107.5 -261.5q0 -152 107.5 -260t261.5 -108q152 0 260 108t108 260q0 154 -108 261.5 t-260 107.5zM625 702l-129 197h-86v-197h-70v498h203q68 0 115 -42t47 -109q0 -72 -46 -110t-81 -38l133 -199h-86zM543 1139h-133v-176h133q36 0 63 24.5t27 61.5q0 40 -26.5 65t-63.5 25z" />
<glyph unicode="&#xaf;" horiz-adv-x="743" d="M29 1151v147h686v-147h-686z" />
<glyph unicode="&#xb0;" horiz-adv-x="636" d="M317 834q-116 0 -196 79.5t-80 194.5q0 116 80.5 197t195.5 81q114 0 195.5 -81.5t81.5 -196.5t-81 -194.5t-196 -79.5zM317 1245q-57 0 -95 -40t-38 -97q0 -56 38 -94.5t95 -38.5q56 0 96 39t40 94q0 57 -40 97t-96 40z" />
<glyph unicode="&#xb1;" horiz-adv-x="1032" d="M606 668v-418h-178v418h-369v159h369v404h178v-404h367v-159h-367zM59 0v160h914v-160h-914z" />
<glyph unicode="&#xb2;" horiz-adv-x="813" d="M94 862v144q270 189 356.5 269.5t86.5 147.5q0 55 -39 84t-101 29q-67 0 -128.5 -30.5t-94.5 -71.5l-102 125q61 68 149 101.5t180 33.5q146 0 238 -67.5t92 -188.5q0 -96 -83 -191t-269 -227h358v-158h-643z" />
<glyph unicode="&#xb3;" horiz-adv-x="813" d="M403 848q-114 0 -200.5 35t-136.5 94l96 129q45 -49 108.5 -74.5t124.5 -25.5q72 0 112 26t40 70q0 56 -47 78t-133 22q-81 0 -93 -2v156q18 -2 91 -2q85 0 126 20.5t41 71.5q0 44 -41 67t-108 23q-125 0 -215 -90l-92 117q121 131 327 131q154 0 240 -61t86 -163 q0 -72 -53 -122.5t-129 -63.5q72 -5 134 -57t62 -137q0 -108 -93.5 -175t-246.5 -67z" />
<glyph unicode="&#xb4;" horiz-adv-x="514" d="M182 1139h-182l274 295h240z" />
<glyph unicode="&#xb5;" horiz-adv-x="1214" d="M389 -377h-260v1366h260v-600q0 -184 184 -184q68 0 127 33t97 81v670h260v-692q0 -42 22.5 -66t59.5 -24q19 0 39 4l18 -221q-58 -15 -121 -15q-212 0 -266 177q-45 -79 -118 -128t-159 -49q-100 0 -143 58v-410z" />
<glyph unicode="&#xb6;" horiz-adv-x="919" d="M696 -205v1444h-159v-1444h-129v867q-146 0 -249.5 103t-103.5 249t103.5 249t249.5 103h417v-1571h-129z" />
<glyph unicode="&#xb7;" d="M262 336q-67 0 -116.5 49t-49.5 115q0 68 49 117t117 49q67 0 115.5 -49t48.5 -117q0 -66 -48.5 -115t-115.5 -49z" />
<glyph unicode="&#xb8;" horiz-adv-x="452" d="M0 -336l51 107q77 -62 166 -62q44 0 75.5 18.5t31.5 51.5q0 24 -15.5 37.5t-44.5 13.5q-36 0 -65 -29l-95 54l62 168h129l-53 -127q29 20 73 20q58 0 98 -39.5t40 -101.5q0 -81 -66 -128.5t-162 -47.5q-70 0 -130.5 18.5t-94.5 46.5z" />
<glyph unicode="&#xb9;" horiz-adv-x="585" d="M264 862v568l-139 -142l-111 119l279 274h170v-819h-199z" />
<glyph unicode="&#xba;" horiz-adv-x="829" d="M61 989q0 141 97.5 239.5t255.5 98.5q161 0 257.5 -98t96.5 -240t-96.5 -240t-257.5 -98q-158 0 -255.5 98.5t-97.5 239.5zM573 989q0 85 -42 133.5t-117 48.5t-116.5 -48.5t-41.5 -133.5q0 -86 42 -136t116 -50t116.5 50.5t42.5 135.5z" />
<glyph unicode="&#xbb;" horiz-adv-x="1079" d="M301 129h-240l328 369l-328 362h240l328 -362zM690 129h-239l327 369l-327 362h239l328 -362z" />
<glyph unicode="&#xbc;" horiz-adv-x="1658" d="M264 547v567l-139 -141l-111 119l279 274h170v-819h-199zM426 0h-156l873 1366h157zM1501 176v-176h-194v176h-402v133l322 510h274v-489h109v-154h-109zM1307 653l-207 -323h207v323z" />
<glyph unicode="&#xbd;" horiz-adv-x="1761" d="M264 547v567l-139 -141l-111 119l279 274h170v-819h-199zM426 0h-156l873 1366h157zM1042 0v143q269 188 356 269.5t87 148.5q0 55 -39 84t-100 29q-66 0 -128.5 -30.5t-95.5 -72.5l-102 125q61 68 149.5 101.5t180.5 33.5q146 0 237.5 -67.5t91.5 -188.5 q0 -96 -82.5 -190.5t-269.5 -226.5h359v-158h-644z" />
<glyph unicode="&#xbe;" horiz-adv-x="1849" d="M403 532q-113 0 -200 35.5t-137 94.5l96 129q45 -49 109 -75t124 -26q72 0 112 26t40 70q0 56 -47 78.5t-133 22.5q-81 0 -93 -2v155q18 -2 91 -2q85 0 126 20.5t41 71.5q0 44 -41 67.5t-108 23.5q-124 0 -215 -91l-92 117q121 131 327 131q154 0 240 -60.5t86 -162.5 q0 -72 -53 -122.5t-129 -63.5q72 -5 134 -57.5t62 -137.5q0 -108 -93.5 -175t-246.5 -67zM616 0h-155l872 1366h158zM1692 176v-176h-195v176h-401v133l321 510h275v-489h108v-154h-108zM1497 653l-207 -323h207v323z" />
<glyph unicode="&#xbf;" horiz-adv-x="815" d="M637 844q0 -66 -49.5 -115t-116.5 -49t-116.5 49t-49.5 115q0 69 49 118.5t117 49.5t117 -49.5t49 -118.5zM637 387q0 -49 -15 -90.5t-46 -75t-55.5 -53t-65.5 -47.5q-40 -28 -61 -45.5t-39.5 -45.5t-18.5 -57q0 -49 41 -81.5t121 -32.5q148 0 252 125l165 -187 q-83 -95 -199.5 -145.5t-250.5 -50.5q-194 0 -310 89.5t-116 233.5q0 49 13.5 92.5t30.5 72.5t50 62t53 48.5t60 44.5q35 25 54 40t41 38t32 46t10 50q0 55 -39 86l223 63q70 -73 70 -180z" />
<glyph unicode="&#xc0;" horiz-adv-x="1400" d="M610 1481l-331 295h239l275 -295h-183zM1092 0l-86 236h-611l-86 -236h-319l528 1366h365l526 -1366h-317zM700 1114l-227 -627h453z" />
<glyph unicode="&#xc1;" horiz-adv-x="1400" d="M784 1481h-182l275 295h239zM1092 0l-86 236h-611l-86 -236h-319l528 1366h365l526 -1366h-317zM700 1114l-227 -627h453z" />
<glyph unicode="&#xc2;" horiz-adv-x="1400" d="M850 1481l-150 182l-145 -182h-160l189 295h233l193 -295h-160zM1092 0l-86 236h-611l-86 -236h-319l528 1366h365l526 -1366h-317zM700 1114l-227 -627h453z" />
<glyph unicode="&#xc3;" horiz-adv-x="1400" d="M659 1561q-2 2 -8 8.5t-8 8.5t-7 7.5t-7.5 7.5l-7.5 6t-8 6t-8 4.5t-9 3.5t-8.5 2t-9.5 1q-33 0 -53.5 -32t-20.5 -95h-137q0 131 57 202.5t164 71.5q36 0 67.5 -14.5t46.5 -28.5t39 -41l17 -17t14.5 -13.5t17.5 -13t15.5 -6t19.5 -3.5q33 0 53.5 31.5t20.5 93.5h137 q0 -131 -56 -202.5t-163 -71.5q-37 0 -69.5 14.5t-49 29t-39.5 40.5zM1092 0l-86 236h-611l-86 -236h-319l528 1366h365l526 -1366h-317zM700 1114l-227 -627h453z" />
<glyph unicode="&#xc4;" horiz-adv-x="1400" d="M485 1477q-59 0 -99 39.5t-40 99.5q0 57 40.5 97t98.5 40q57 0 97.5 -40t40.5 -97q0 -59 -40 -99t-98 -40zM918 1477q-58 0 -99 40t-41 99q0 57 41.5 97t98.5 40t98 -40t41 -97q0 -59 -40.5 -99t-98.5 -40zM1092 0l-86 236h-611l-86 -236h-319l528 1366h365l526 -1366 h-317zM700 1114l-227 -627h453z" />
<glyph unicode="&#xc5;" horiz-adv-x="1400" d="M487 1645q0 88 63.5 152.5t151.5 64.5q89 0 151 -64.5t62 -152.5q0 -89 -62 -152t-151 -63q-88 0 -151.5 63t-63.5 152zM797 1645q0 40 -27.5 68t-67.5 28q-39 0 -67.5 -28.5t-28.5 -67.5q0 -38 29 -67.5t67 -29.5q39 0 67 29t28 68zM1092 0l-86 236h-611l-86 -236h-319 l528 1366h365l526 -1366h-317zM700 1114l-227 -627h453z" />
<glyph unicode="&#xc6;" horiz-adv-x="1982" d="M930 0v236h-492l-137 -236h-319l831 1366h1083v-250h-673v-297h659v-250h-659v-317h673v-252h-966zM930 1116l-357 -629h357v629z" />
<glyph unicode="&#xc7;" horiz-adv-x="1406" d="M786 233q110 0 199 55.5t133 143.5l250 -121q-181 -314 -530 -334l-35 -81q29 20 74 20q58 0 97.5 -39.5t39.5 -101.5q0 -81 -66 -128.5t-162 -47.5q-70 0 -130.5 18.5t-94.5 46.5l51 107q77 -62 166 -62q44 0 75.5 18.5t31.5 51.5q0 24 -15.5 37.5t-44.5 13.5 q-36 0 -65 -29l-94 54l45 125q-135 12 -252.5 68.5t-203.5 147t-135.5 216.5t-49.5 270q0 154 56 287t152 224.5t228 143.5t280 52q112 0 207.5 -27.5t165.5 -76.5t120 -105t89 -125l-250 -123q-45 87 -133.5 142.5t-198.5 55.5q-179 0 -298 -127.5t-119 -320.5t119 -321 t298 -128z" />
<glyph unicode="&#xc8;" horiz-adv-x="1193" d="M541 1481l-332 295h240l274 -295h-182zM135 0v1366h967v-250h-676v-297h661v-250h-661v-317h676v-252h-967z" />
<glyph unicode="&#xc9;" horiz-adv-x="1193" d="M715 1481h-183l275 295h240zM135 0v1366h967v-250h-676v-297h661v-250h-661v-317h676v-252h-967z" />
<glyph unicode="&#xca;" horiz-adv-x="1193" d="M780 1481l-149 182l-146 -182h-159l188 295h234l192 -295h-160zM135 0v1366h967v-250h-676v-297h661v-250h-661v-317h676v-252h-967z" />
<glyph unicode="&#xcb;" horiz-adv-x="1193" d="M416 1477q-59 0 -99.5 39.5t-40.5 99.5q0 57 41 97t99 40q57 0 97 -40t40 -97q0 -60 -39.5 -99.5t-97.5 -39.5zM848 1477q-58 0 -98.5 40t-40.5 99q0 57 41 97t98 40t98 -40t41 -97q0 -59 -40.5 -99t-98.5 -40zM135 0v1366h967v-250h-676v-297h661v-250h-661v-317h676 v-252h-967z" />
<glyph unicode="&#xcc;" horiz-adv-x="561" d="M193 1481l-332 295h239l275 -295h-182zM135 0v1366h291v-1366h-291z" />
<glyph unicode="&#xcd;" horiz-adv-x="561" d="M367 1481h-183l275 295h239zM135 0v1366h291v-1366h-291z" />
<glyph unicode="&#xce;" horiz-adv-x="561" d="M432 1481l-149 182l-146 -182h-160l189 295h233l193 -295h-160zM135 0v1366h291v-1366h-291z" />
<glyph unicode="&#xcf;" horiz-adv-x="561" d="M68 1477q-59 0 -99.5 39.5t-40.5 99.5q0 57 41 97t99 40q57 0 97 -40t40 -97q0 -60 -39.5 -99.5t-97.5 -39.5zM500 1477q-58 0 -99 40t-41 99q0 57 41.5 97t98.5 40t98 -40t41 -97q0 -59 -40.5 -99t-98.5 -40zM135 0v1366h291v-1366h-291z" />
<glyph unicode="&#xd0;" horiz-adv-x="1519" d="M723 1366q212 0 377.5 -84.5t257.5 -240.5t92 -359t-92 -358.5t-256.5 -239.5t-376.5 -84h-541v565h-168v221h168v580h539zM723 256q196 0 312 123t116 303q0 123 -47.5 218.5t-145 152.5t-233.5 57h-248v-324h305v-221h-305v-309h246z" />
<glyph unicode="&#xd1;" horiz-adv-x="1492" d="M707 1561q-38 41 -56 49q-13 6 -26 6q-33 0 -53.5 -32t-20.5 -95h-137q0 131 57 202.5t164 71.5q36 0 67.5 -14.5t46.5 -28.5t39 -41l17 -17t14.5 -13.5t17.5 -13t15.5 -6t19.5 -3.5q33 0 53.5 31.5t20.5 93.5h137q0 -131 -56 -202.5t-163 -71.5q-37 0 -69.5 14.5 t-48.5 29t-39 40.5zM1077 0l-651 918v-918h-291v1366h299l633 -885v885h291v-1366h-281z" />
<glyph unicode="&#xd2;" horiz-adv-x="1566" d="M692 1481l-332 295h240l274 -295h-182zM70 682q0 152 53.5 284t147.5 224.5t226.5 145.5t284.5 53q205 0 368 -90t255 -252t92 -365t-92 -365t-255 -252t-368 -90q-152 0 -284.5 53t-226.5 145.5t-147.5 224.5t-53.5 284zM1198 682q0 195 -114.5 321.5t-301.5 126.5 q-186 0 -299.5 -126.5t-113.5 -321.5q0 -194 113.5 -321.5t299.5 -127.5t301 127.5t115 321.5z" />
<glyph unicode="&#xd3;" horiz-adv-x="1566" d="M866 1481h-182l274 295h240zM70 682q0 152 53.5 284t147.5 224.5t226.5 145.5t284.5 53q205 0 368 -90t255 -252t92 -365t-92 -365t-255 -252t-368 -90q-152 0 -284.5 53t-226.5 145.5t-147.5 224.5t-53.5 284zM1198 682q0 195 -114.5 321.5t-301.5 126.5 q-186 0 -299.5 -126.5t-113.5 -321.5q0 -194 113.5 -321.5t299.5 -127.5t301 127.5t115 321.5z" />
<glyph unicode="&#xd4;" horiz-adv-x="1566" d="M932 1481l-150 182l-145 -182h-160l189 295h233l193 -295h-160zM70 682q0 152 53.5 284t147.5 224.5t226.5 145.5t284.5 53q205 0 368 -90t255 -252t92 -365t-92 -365t-255 -252t-368 -90q-152 0 -284.5 53t-226.5 145.5t-147.5 224.5t-53.5 284zM1198 682 q0 195 -114.5 321.5t-301.5 126.5q-186 0 -299.5 -126.5t-113.5 -321.5q0 -194 113.5 -321.5t299.5 -127.5t301 127.5t115 321.5z" />
<glyph unicode="&#xd5;" horiz-adv-x="1566" d="M741 1561q-38 41 -56 49q-13 6 -26 6q-33 0 -53 -32t-20 -95h-137q0 131 57 202.5t164 71.5q36 0 67.5 -14.5t46.5 -28.5t39 -41l17 -17t14.5 -13.5t17.5 -13t15.5 -6t19.5 -3.5q33 0 53.5 31.5t20.5 93.5h137q0 -131 -56 -202.5t-163 -71.5q-37 0 -69.5 14.5t-49 29 t-39.5 40.5zM70 682q0 152 53.5 284t147.5 224.5t226.5 145.5t284.5 53q205 0 368 -90t255 -252t92 -365t-92 -365t-255 -252t-368 -90q-152 0 -284.5 53t-226.5 145.5t-147.5 224.5t-53.5 284zM1198 682q0 195 -114.5 321.5t-301.5 126.5q-186 0 -299.5 -126.5 t-113.5 -321.5q0 -194 113.5 -321.5t299.5 -127.5t301 127.5t115 321.5z" />
<glyph unicode="&#xd6;" horiz-adv-x="1566" d="M567 1477q-59 0 -99 39.5t-40 99.5q0 57 40.5 97t98.5 40q57 0 97.5 -40t40.5 -97q0 -59 -40 -99t-98 -40zM999 1477q-58 0 -98.5 40t-40.5 99q0 57 41 97t98 40t98.5 -40t41.5 -97q0 -59 -41 -99t-99 -40zM70 682q0 152 53.5 284t147.5 224.5t226.5 145.5t284.5 53 q205 0 368 -90t255 -252t92 -365t-92 -365t-255 -252t-368 -90q-152 0 -284.5 53t-226.5 145.5t-147.5 224.5t-53.5 284zM1198 682q0 195 -114.5 321.5t-301.5 126.5q-186 0 -299.5 -126.5t-113.5 -321.5q0 -194 113.5 -321.5t299.5 -127.5t301 127.5t115 321.5z" />
<glyph unicode="&#xd7;" horiz-adv-x="1032" d="M516 569l-287 -288l-116 112l288 291l-288 289l116 114l287 -290l289 290l115 -114l-289 -289l289 -291l-115 -112z" />
<glyph unicode="&#xd8;" horiz-adv-x="1566" d="M1274 1210q106 -97 164.5 -232.5t58.5 -295.5q0 -203 -92 -365t-255 -252t-368 -90q-207 0 -376 97l-56 -72h-209l131 172q-202 202 -202 510q0 152 53.5 284t147.5 224.5t226.5 145.5t284.5 53q193 0 355 -84l47 61h209zM369 682q0 -160 80 -279l522 684q-79 43 -189 43 q-186 0 -299.5 -126.5t-113.5 -321.5zM782 233q186 0 301 127.5t115 321.5q0 180 -98 301l-529 -694q94 -56 211 -56z" />
<glyph unicode="&#xd9;" horiz-adv-x="1490" d="M657 1481l-331 295h239l275 -295h-183zM135 545v821h295v-811q0 -147 81.5 -234.5t236.5 -87.5q152 0 232.5 87.5t80.5 234.5v811h295v-819q0 -264 -153.5 -418t-454.5 -154q-303 0 -458 154t-155 416z" />
<glyph unicode="&#xda;" horiz-adv-x="1490" d="M831 1481h-182l275 295h239zM135 545v821h295v-811q0 -147 81.5 -234.5t236.5 -87.5q152 0 232.5 87.5t80.5 234.5v811h295v-819q0 -264 -153.5 -418t-454.5 -154q-303 0 -458 154t-155 416z" />
<glyph unicode="&#xdb;" horiz-adv-x="1490" d="M897 1481l-149 182l-146 -182h-160l189 295h233l193 -295h-160zM135 545v821h295v-811q0 -147 81.5 -234.5t236.5 -87.5q152 0 232.5 87.5t80.5 234.5v811h295v-819q0 -264 -153.5 -418t-454.5 -154q-303 0 -458 154t-155 416z" />
<glyph unicode="&#xdc;" horiz-adv-x="1490" d="M532 1477q-59 0 -99 39.5t-40 99.5q0 57 40.5 97t98.5 40q57 0 97.5 -40t40.5 -97q0 -59 -40 -99t-98 -40zM965 1477q-58 0 -99 40t-41 99q0 57 41.5 97t98.5 40t98 -40t41 -97q0 -59 -40.5 -99t-98.5 -40zM135 545v821h295v-811q0 -147 81.5 -234.5t236.5 -87.5 q152 0 232.5 87.5t80.5 234.5v811h295v-819q0 -264 -153.5 -418t-454.5 -154q-303 0 -458 154t-155 416z" />
<glyph unicode="&#xdd;" horiz-adv-x="1320" d="M745 1481h-182l275 295h239zM516 0v559l-526 807h332l340 -549l335 549h332l-522 -807v-559h-291z" />
<glyph unicode="&#xde;" horiz-adv-x="1277" d="M135 0v1366h291v-221h348q144 0 250 -61.5t157.5 -160.5t51.5 -221q0 -121 -52 -218.5t-158 -157.5t-249 -60h-348v-266h-291zM936 705q0 85 -57.5 137.5t-149.5 52.5h-303v-377h303q93 0 150 51.5t57 135.5z" />
<glyph unicode="&#xdf;" horiz-adv-x="1316" d="M872 -25q-135 0 -227 40t-176 116l111 180q43 -56 123.5 -94.5t168.5 -38.5q76 0 119 31.5t43 75.5q0 18 -10.5 33.5t-24.5 25.5t-42 20t-48.5 15.5t-58.5 15.5q-43 10 -68 16.5t-67 20.5t-67.5 28.5t-57 38.5t-49 51.5t-29.5 67.5t-12 87q0 46 14 84.5t42.5 70t50 49 t57.5 43.5q30 22 45.5 34.5t29 31t13.5 35.5q0 48 -47 75t-111 27q-89 0 -147 -49t-58 -133v-973h-260v973q0 175 126.5 294t342.5 119q110 0 205.5 -35t156 -103.5t60.5 -157.5q0 -47 -14 -86.5t-43 -71.5t-50 -49.5t-59 -44.5t-54 -39.5t-33 -36t-17 -47.5q0 -14 5 -25 t19 -20t24.5 -14.5t36 -12.5t38 -10t45.5 -10q47 -10 70.5 -15.5t69 -19.5t71 -28.5t59.5 -40t52 -55.5t31 -73.5t13 -95.5q0 -140 -113 -230t-299 -90z" />
<glyph unicode="&#xe0;" horiz-adv-x="1112" d="M465 1139l-332 295h240l274 -295h-182zM723 0v102q-51 -60 -133.5 -93.5t-179.5 -33.5q-61 0 -120.5 21t-110.5 60t-82 103.5t-31 143.5q0 83 31 146t82.5 98.5t109.5 53t121 17.5q100 0 182 -30.5t131 -89.5v137q0 75 -59.5 120.5t-157.5 45.5q-163 0 -289 -117l-98 174 q178 156 432 156q89 0 163 -19t136.5 -61t97.5 -117t35 -178v-639h-260zM723 238v122q-31 42 -87.5 64t-121.5 22q-79 0 -132.5 -40.5t-53.5 -108.5q0 -67 53.5 -106t132.5 -39q65 0 121.5 22t87.5 64z" />
<glyph unicode="&#xe1;" horiz-adv-x="1112" d="M639 1139h-182l274 295h240zM723 0v102q-51 -60 -133.5 -93.5t-179.5 -33.5q-61 0 -120.5 21t-110.5 60t-82 103.5t-31 143.5q0 83 31 146t82.5 98.5t109.5 53t121 17.5q100 0 182 -30.5t131 -89.5v137q0 75 -59.5 120.5t-157.5 45.5q-163 0 -289 -117l-98 174 q178 156 432 156q89 0 163 -19t136.5 -61t97.5 -117t35 -178v-639h-260zM723 238v122q-31 42 -87.5 64t-121.5 22q-79 0 -132.5 -40.5t-53.5 -108.5q0 -67 53.5 -106t132.5 -39q65 0 121.5 22t87.5 64z" />
<glyph unicode="&#xe2;" horiz-adv-x="1112" d="M705 1139l-150 182l-145 -182h-160l188 295h234l192 -295h-159zM723 0v102q-51 -60 -133.5 -93.5t-179.5 -33.5q-61 0 -120.5 21t-110.5 60t-82 103.5t-31 143.5q0 83 31 146t82.5 98.5t109.5 53t121 17.5q100 0 182 -30.5t131 -89.5v137q0 75 -59.5 120.5t-157.5 45.5 q-163 0 -289 -117l-98 174q178 156 432 156q89 0 163 -19t136.5 -61t97.5 -117t35 -178v-639h-260zM723 238v122q-31 42 -87.5 64t-121.5 22q-79 0 -132.5 -40.5t-53.5 -108.5q0 -67 53.5 -106t132.5 -39q65 0 121.5 22t87.5 64z" />
<glyph unicode="&#xe3;" horiz-adv-x="1112" d="M514 1219q-38 41 -56 49q-13 6 -26 6q-33 0 -53.5 -32t-20.5 -95h-137q0 131 57 202.5t164 71.5q36 0 67.5 -14.5t47 -29t39.5 -40.5l17 -17t14.5 -13.5t17.5 -13t15.5 -6t19.5 -3.5q33 0 53.5 31.5t20.5 93.5h137q0 -131 -56 -202.5t-163 -71.5q-37 0 -69.5 14.5t-49 29 t-39.5 40.5zM723 0v102q-51 -60 -133.5 -93.5t-179.5 -33.5q-61 0 -120.5 21t-110.5 60t-82 103.5t-31 143.5q0 83 31 146t82.5 98.5t109.5 53t121 17.5q100 0 182 -30.5t131 -89.5v137q0 75 -59.5 120.5t-157.5 45.5q-163 0 -289 -117l-98 174q178 156 432 156 q89 0 163 -19t136.5 -61t97.5 -117t35 -178v-639h-260zM723 238v122q-31 42 -87.5 64t-121.5 22q-79 0 -132.5 -40.5t-53.5 -108.5q0 -67 53.5 -106t132.5 -39q65 0 121.5 22t87.5 64z" />
<glyph unicode="&#xe4;" horiz-adv-x="1112" d="M340 1135q-59 0 -99 39.5t-40 99.5q0 57 40.5 97t98.5 40q57 0 97 -40t40 -97q0 -60 -39.5 -99.5t-97.5 -39.5zM772 1135q-58 0 -98.5 40t-40.5 99q0 57 41 97t98 40t98 -40t41 -97q0 -59 -40.5 -99t-98.5 -40zM723 0v102q-51 -60 -133.5 -93.5t-179.5 -33.5 q-61 0 -120.5 21t-110.5 60t-82 103.5t-31 143.5q0 83 31 146t82.5 98.5t109.5 53t121 17.5q100 0 182 -30.5t131 -89.5v137q0 75 -59.5 120.5t-157.5 45.5q-163 0 -289 -117l-98 174q178 156 432 156q89 0 163 -19t136.5 -61t97.5 -117t35 -178v-639h-260zM723 238v122 q-31 42 -87.5 64t-121.5 22q-79 0 -132.5 -40.5t-53.5 -108.5q0 -67 53.5 -106t132.5 -39q65 0 121.5 22t87.5 64z" />
<glyph unicode="&#xe5;" horiz-adv-x="1112" d="M342 1303q0 88 63.5 152.5t151.5 64.5q89 0 151 -64.5t62 -152.5q0 -90 -62 -153t-151 -63q-88 0 -151.5 63.5t-63.5 152.5zM651 1303q0 40 -27 68t-67 28q-39 0 -67.5 -28.5t-28.5 -67.5q0 -38 29 -67.5t67 -29.5q39 0 66.5 29t27.5 68zM723 0v102q-51 -60 -133.5 -93.5 t-179.5 -33.5q-61 0 -120.5 21t-110.5 60t-82 103.5t-31 143.5q0 83 31 146t82.5 98.5t109.5 53t121 17.5q100 0 182 -30.5t131 -89.5v137q0 75 -59.5 120.5t-157.5 45.5q-163 0 -289 -117l-98 174q178 156 432 156q89 0 163 -19t136.5 -61t97.5 -117t35 -178v-639h-260z M723 238v122q-31 42 -87.5 64t-121.5 22q-79 0 -132.5 -40.5t-53.5 -108.5q0 -67 53.5 -106t132.5 -39q65 0 121.5 22t87.5 64z" />
<glyph unicode="&#xe6;" horiz-adv-x="1781" d="M1024 412q14 -97 83.5 -160.5t182.5 -63.5q66 0 133.5 26t110.5 71l117 -172q-70 -66 -175 -102t-204 -36q-255 0 -381 181q-64 -81 -174 -131t-238 -50q-112 0 -203.5 34t-150.5 109t-59 181q0 105 50 179.5t129.5 109.5t178.5 35q103 0 192.5 -31t145.5 -88v133 q0 73 -65 118.5t-171 45.5q-171 0 -309 -117l-98 174q88 77 202 116.5t236 39.5q260 0 346 -170q61 80 145.5 125t213.5 45q205 0 332.5 -151t127.5 -394v-57h-698zM1470 588q-2 38 -15 74.5t-38.5 70t-70 54t-101.5 20.5q-101 0 -158.5 -67t-66.5 -152h450zM762 358 q-36 41 -99 64.5t-133 23.5q-89 0 -145.5 -34.5t-56.5 -98.5t55.5 -98.5t140.5 -34.5q95 0 166.5 52.5t71.5 113.5v12z" />
<glyph unicode="&#xe7;" horiz-adv-x="1021" d="M602 207q134 0 209 106l170 -157q-50 -71 -135 -121t-205 -58l-35 -81q29 20 74 20q58 0 97.5 -39.5t39.5 -101.5q0 -81 -65.5 -128.5t-161.5 -47.5q-70 0 -130.5 18.5t-94.5 46.5l51 107q77 -62 166 -62q44 0 75 18.5t31 51.5q0 51 -59 51q-37 0 -66 -29l-94 54l45 125 q-199 25 -323.5 166.5t-124.5 349.5q0 227 147.5 372.5t376.5 145.5q141 0 238 -50.5t153 -129.5l-170 -158q-73 106 -209 106q-119 0 -193.5 -79t-74.5 -207q0 -129 74.5 -209t193.5 -80z" />
<glyph unicode="&#xe8;" horiz-adv-x="1132" d="M487 1139l-331 295h239l275 -295h-183zM66 496q0 143 64.5 261t182.5 187.5t265 69.5q221 0 358 -151t137 -394v-57h-735q13 -99 88.5 -164.5t196.5 -65.5q70 0 144 27t120 72l114 -168q-73 -67 -180.5 -102.5t-226.5 -35.5q-229 0 -378.5 143.5t-149.5 377.5zM578 807 q-58 0 -104.5 -20t-74.5 -53t-44 -70t-21 -76h487q-2 38 -16.5 74.5t-42 70t-75.5 54t-109 20.5z" />
<glyph unicode="&#xe9;" horiz-adv-x="1132" d="M662 1139h-183l275 295h239zM66 496q0 143 64.5 261t182.5 187.5t265 69.5q221 0 358 -151t137 -394v-57h-735q13 -99 88.5 -164.5t196.5 -65.5q70 0 144 27t120 72l114 -168q-73 -67 -180.5 -102.5t-226.5 -35.5q-229 0 -378.5 143.5t-149.5 377.5zM578 807 q-58 0 -104.5 -20t-74.5 -53t-44 -70t-21 -76h487q-2 38 -16.5 74.5t-42 70t-75.5 54t-109 20.5z" />
<glyph unicode="&#xea;" horiz-adv-x="1132" d="M727 1139l-149 182l-146 -182h-160l189 295h233l193 -295h-160zM66 496q0 143 64.5 261t182.5 187.5t265 69.5q221 0 358 -151t137 -394v-57h-735q13 -99 88.5 -164.5t196.5 -65.5q70 0 144 27t120 72l114 -168q-73 -67 -180.5 -102.5t-226.5 -35.5q-229 0 -378.5 143.5 t-149.5 377.5zM578 807q-58 0 -104.5 -20t-74.5 -53t-44 -70t-21 -76h487q-2 38 -16.5 74.5t-42 70t-75.5 54t-109 20.5z" />
<glyph unicode="&#xeb;" horiz-adv-x="1132" d="M362 1135q-59 0 -99 39.5t-40 99.5q0 57 40.5 97t98.5 40q57 0 97.5 -40t40.5 -97q0 -59 -40 -99t-98 -40zM795 1135q-58 0 -99 40t-41 99q0 57 41.5 97t98.5 40t98 -40t41 -97q0 -59 -40.5 -99t-98.5 -40zM66 496q0 143 64.5 261t182.5 187.5t265 69.5q221 0 358 -151 t137 -394v-57h-735q13 -99 88.5 -164.5t196.5 -65.5q70 0 144 27t120 72l114 -168q-73 -67 -180.5 -102.5t-226.5 -35.5q-229 0 -378.5 143.5t-149.5 377.5zM578 807q-58 0 -104.5 -20t-74.5 -53t-44 -70t-21 -76h487q-2 38 -16.5 74.5t-42 70t-75.5 54t-109 20.5z" />
<glyph unicode="&#xec;" horiz-adv-x="518" d="M168 1139l-332 295h240l274 -295h-182zM129 0v989h260v-989h-260z" />
<glyph unicode="&#xed;" horiz-adv-x="518" d="M342 1139h-182l274 295h240zM129 0v989h260v-989h-260z" />
<glyph unicode="&#xee;" horiz-adv-x="518" d="M408 1139l-150 182l-145 -182h-160l188 295h234l192 -295h-159zM129 0v989h260v-989h-260z" />
<glyph unicode="&#xef;" horiz-adv-x="518" d="M43 1135q-59 0 -99 39.5t-40 99.5q0 57 40.5 97t98.5 40q57 0 97 -40t40 -97q0 -60 -40 -99.5t-97 -39.5zM475 1135q-58 0 -98.5 40t-40.5 99q0 57 41 97t98 40t98 -40t41 -97q0 -59 -40.5 -99t-98.5 -40zM129 0v989h260v-989h-260z" />
<glyph unicode="&#xf0;" horiz-adv-x="1175" d="M762 1204q350 -315 350 -688q0 -243 -140.5 -392t-383.5 -149q-234 0 -378 135.5t-144 348.5q0 211 125 347t313 136q205 0 327 -190q-72 165 -321 342l-299 -133l-51 122l219 97q-24 16 -69 42t-56 33l141 211q140 -83 254 -170l209 93l51 -119zM588 207 q117 0 185.5 72.5t68.5 179.5t-68.5 179.5t-185.5 72.5t-184.5 -72.5t-67.5 -179.5t67.5 -179.5t184.5 -72.5z" />
<glyph unicode="&#xf1;" horiz-adv-x="1185" d="M553 1219q-38 41 -56 49q-13 6 -26 6q-33 0 -53.5 -32t-20.5 -95h-137q0 131 57 202.5t164 71.5q36 0 67.5 -14.5t47 -29t39.5 -40.5l17 -17t14.5 -13.5t17.5 -13t15.5 -6t19.5 -3.5q33 0 53.5 31.5t20.5 93.5h137q0 -131 -56 -202.5t-163 -71.5q-37 0 -69.5 14.5t-49 29 t-39.5 40.5zM797 0v598q0 98 -47.5 141t-135.5 43q-71 0 -130 -33.5t-95 -82.5v-666h-260v989h260v-129q54 65 144 109.5t202 44.5q159 0 240.5 -83.5t81.5 -232.5v-698h-260z" />
<glyph unicode="&#xf2;" horiz-adv-x="1175" d="M498 1139l-332 295h240l274 -295h-182zM588 -25q-158 0 -278.5 71.5t-182 189t-61.5 260.5q0 142 61.5 258.5t182 188t278.5 71.5q159 0 280 -71.5t182.5 -188t61.5 -258.5q0 -106 -36.5 -200.5t-102 -166t-165.5 -113t-220 -41.5zM588 207q117 0 185.5 83.5t68.5 205.5 q0 121 -68.5 203.5t-185.5 82.5t-184.5 -82.5t-67.5 -203.5q0 -122 67.5 -205.5t184.5 -83.5z" />
<glyph unicode="&#xf3;" horiz-adv-x="1175" d="M672 1139h-183l275 295h240zM588 -25q-158 0 -278.5 71.5t-182 189t-61.5 260.5q0 142 61.5 258.5t182 188t278.5 71.5q159 0 280 -71.5t182.5 -188t61.5 -258.5q0 -106 -36.5 -200.5t-102 -166t-165.5 -113t-220 -41.5zM588 207q117 0 185.5 83.5t68.5 205.5 q0 121 -68.5 203.5t-185.5 82.5t-184.5 -82.5t-67.5 -203.5q0 -122 67.5 -205.5t184.5 -83.5z" />
<glyph unicode="&#xf4;" horiz-adv-x="1175" d="M737 1139l-149 182l-146 -182h-159l188 295h234l192 -295h-160zM588 -25q-158 0 -278.5 71.5t-182 189t-61.5 260.5q0 142 61.5 258.5t182 188t278.5 71.5q159 0 280 -71.5t182.5 -188t61.5 -258.5q0 -106 -36.5 -200.5t-102 -166t-165.5 -113t-220 -41.5zM588 207 q117 0 185.5 83.5t68.5 205.5q0 121 -68.5 203.5t-185.5 82.5t-184.5 -82.5t-67.5 -203.5q0 -122 67.5 -205.5t184.5 -83.5z" />
<glyph unicode="&#xf5;" horiz-adv-x="1175" d="M547 1219q-38 41 -56 49q-13 6 -26 6q-33 0 -53.5 -32t-20.5 -95h-137q0 131 57 202.5t164 71.5q36 0 67.5 -14.5t47 -29t39.5 -40.5l17 -17t14.5 -13.5t17.5 -13t15.5 -6t19.5 -3.5q33 0 53 31.5t20 93.5h138q0 -131 -56 -202.5t-163 -71.5q-37 0 -69.5 14.5t-49 29 t-39.5 40.5zM588 -25q-158 0 -278.5 71.5t-182 189t-61.5 260.5q0 142 61.5 258.5t182 188t278.5 71.5q159 0 280 -71.5t182.5 -188t61.5 -258.5q0 -106 -36.5 -200.5t-102 -166t-165.5 -113t-220 -41.5zM588 207q117 0 185.5 83.5t68.5 205.5q0 121 -68.5 203.5 t-185.5 82.5t-184.5 -82.5t-67.5 -203.5q0 -122 67.5 -205.5t184.5 -83.5z" />
<glyph unicode="&#xf6;" horiz-adv-x="1175" d="M373 1135q-59 0 -99.5 39.5t-40.5 99.5q0 57 41 97t99 40q57 0 97 -40t40 -97q0 -60 -40 -99.5t-97 -39.5zM805 1135q-58 0 -98.5 40t-40.5 99q0 57 41 97t98 40t98 -40t41 -97q0 -59 -40.5 -99t-98.5 -40zM588 -25q-158 0 -278.5 71.5t-182 189t-61.5 260.5 q0 142 61.5 258.5t182 188t278.5 71.5q159 0 280 -71.5t182.5 -188t61.5 -258.5q0 -106 -36.5 -200.5t-102 -166t-165.5 -113t-220 -41.5zM588 207q117 0 185.5 83.5t68.5 205.5q0 121 -68.5 203.5t-185.5 82.5t-184.5 -82.5t-67.5 -203.5q0 -122 67.5 -205.5t184.5 -83.5z " />
<glyph unicode="&#xf7;" horiz-adv-x="1046" d="M522 930q-52 0 -88.5 37t-36.5 90q0 51 36.5 87t88.5 36t88.5 -36t36.5 -87q0 -53 -36.5 -90t-88.5 -37zM59 610v162h928v-162h-928zM522 197q-52 0 -88.5 36.5t-36.5 88.5q0 51 36.5 87.5t88.5 36.5t88.5 -36.5t36.5 -87.5q0 -52 -36.5 -88.5t-88.5 -36.5z" />
<glyph unicode="&#xf8;" horiz-adv-x="1175" d="M975 858q137 -146 137 -362q0 -106 -36.5 -200.5t-102 -166t-165.5 -113t-220 -41.5q-168 0 -297 82l-49 -57h-160l117 137q-133 145 -133 359q0 142 61.5 258.5t182 188t278.5 71.5q163 0 289 -76l45 51h163zM336 496q0 -88 35 -156l346 408q-55 34 -129 34 q-117 0 -184.5 -82.5t-67.5 -203.5zM588 207q117 0 185.5 83.5t68.5 205.5q0 88 -39 161l-350 -411q58 -39 135 -39z" />
<glyph unicode="&#xf9;" horiz-adv-x="1185" d="M502 1139l-332 295h240l274 -295h-182zM797 0v125q-58 -65 -146.5 -107.5t-201.5 -42.5q-159 0 -239.5 82t-80.5 230v702h260v-600q0 -98 47 -140t135 -42q70 0 129 32t97 80v670h260v-989h-260z" />
<glyph unicode="&#xfa;" horiz-adv-x="1185" d="M676 1139h-182l274 295h240zM797 0v125q-58 -65 -146.5 -107.5t-201.5 -42.5q-159 0 -239.5 82t-80.5 230v702h260v-600q0 -98 47 -140t135 -42q70 0 129 32t97 80v670h260v-989h-260z" />
<glyph unicode="&#xfb;" horiz-adv-x="1185" d="M741 1139l-149 182l-146 -182h-159l188 295h234l192 -295h-160zM797 0v125q-58 -65 -146.5 -107.5t-201.5 -42.5q-159 0 -239.5 82t-80.5 230v702h260v-600q0 -98 47 -140t135 -42q70 0 129 32t97 80v670h260v-989h-260z" />
<glyph unicode="&#xfc;" horiz-adv-x="1185" d="M377 1135q-59 0 -99 39.5t-40 99.5q0 57 40.5 97t98.5 40q57 0 97 -40t40 -97q0 -60 -40 -99.5t-97 -39.5zM809 1135q-58 0 -98.5 40t-40.5 99q0 57 41 97t98 40t98 -40t41 -97q0 -59 -40.5 -99t-98.5 -40zM797 0v125q-58 -65 -146.5 -107.5t-201.5 -42.5 q-159 0 -239.5 82t-80.5 230v702h260v-600q0 -98 47 -140t135 -42q70 0 129 32t97 80v670h260v-989h-260z" />
<glyph unicode="&#xfd;" horiz-adv-x="1050" d="M608 1139h-182l274 295h240zM133 -154q37 -16 82 -16q103 0 137 72l37 84l-401 1003h278l258 -688l258 688h281l-465 -1151q-52 -131 -144 -183.5t-231 -55.5q-71 0 -129 14z" />
<glyph unicode="&#xfe;" horiz-adv-x="1198" d="M389 127v-504h-260v1743h260v-502q119 150 305 150q195 0 317 -138t122 -380t-122 -381.5t-317 -139.5q-186 0 -305 152zM862 496q0 128 -69 207t-181 79q-63 0 -127 -32.5t-96 -79.5v-351q33 -47 97 -79.5t126 -32.5q112 0 181 80t69 209z" />
<glyph unicode="&#xff;" horiz-adv-x="1050" d="M309 1135q-59 0 -99 39.5t-40 99.5q0 57 40.5 97t98.5 40q57 0 97 -40t40 -97q0 -60 -40 -99.5t-97 -39.5zM741 1135q-58 0 -98.5 40t-40.5 99q0 57 41 97t98 40t98.5 -40t41.5 -97q0 -59 -41 -99t-99 -40zM133 -154q37 -16 82 -16q103 0 137 72l37 84l-401 1003h278 l258 -688l258 688h281l-465 -1151q-52 -131 -144 -183.5t-231 -55.5q-71 0 -129 14z" />
<glyph unicode="&#x152;" horiz-adv-x="2220" d="M1165 0v160q-66 -89 -179.5 -137t-231.5 -48q-196 0 -352.5 90t-244 251.5t-87.5 365.5t88 365t244 250t352 89q119 0 232 -47t179 -135v162h967v-250h-674v-297h660v-250h-660v-317h674v-252h-967zM1165 893q-49 115 -146 175t-224 60q-195 0 -310.5 -125t-115.5 -321 q0 -195 116 -322t310 -127q125 0 223 62.5t147 175.5v422z" />
<glyph unicode="&#x153;" horiz-adv-x="1906" d="M1114 412q14 -97 89 -163.5t196 -66.5q69 0 141 26.5t121 70.5l117 -166q-73 -67 -181.5 -102.5t-226.5 -35.5q-78 0 -143.5 19.5t-113 55t-79 68.5t-61.5 77q-30 -42 -60.5 -75t-77.5 -69t-110.5 -56t-136.5 -20q-158 0 -278.5 71.5t-182 189t-61.5 260.5 q0 142 61.5 258.5t182 188t278.5 71.5q73 0 136.5 -20t111 -56.5t78 -69t61.5 -75.5q140 221 379 221q221 0 357 -151t136 -394v-57h-733zM1597 588q-2 38 -17 74.5t-42.5 70t-76 54t-109.5 20.5q-57 0 -103.5 -20t-74.5 -53t-44 -70t-20 -76h487zM588 782 q-113 0 -182.5 -79.5t-69.5 -206.5q0 -128 69.5 -209.5t182.5 -81.5q115 0 184.5 81t69.5 210q0 127 -69.5 206.5t-184.5 79.5z" />
<glyph unicode="&#x178;" horiz-adv-x="1320" d="M446 1477q-59 0 -99 39.5t-40 99.5q0 57 40.5 97t98.5 40q57 0 97.5 -40t40.5 -97q0 -59 -40 -99t-98 -40zM879 1477q-58 0 -99 40t-41 99q0 57 41.5 97t98.5 40t98 -40t41 -97q0 -59 -40.5 -99t-98.5 -40zM516 0v559l-526 807h332l340 -549l335 549h332l-522 -807v-559 h-291z" />
<glyph unicode="&#x2c6;" horiz-adv-x="614" d="M455 1139l-150 182l-145 -182h-160l188 295h234l192 -295h-159z" />
<glyph unicode="&#x2dc;" horiz-adv-x="669" d="M293 1219q-38 41 -56 49q-13 6 -26 6q-33 0 -53.5 -32t-20.5 -95h-137q0 131 57 202.5t164 71.5q36 0 67.5 -14.5t47 -29t39.5 -40.5l17 -17t14.5 -13.5t17.5 -13t15.5 -6t19.5 -3.5q33 0 53 31.5t20 93.5h138q0 -131 -56 -202.5t-163 -71.5q-37 0 -69.5 14.5t-49 29 t-39.5 40.5z" />
<glyph unicode="&#x2000;" horiz-adv-x="931" />
<glyph unicode="&#x2001;" horiz-adv-x="1862" />
<glyph unicode="&#x2002;" horiz-adv-x="931" />
<glyph unicode="&#x2003;" horiz-adv-x="1862" />
<glyph unicode="&#x2004;" horiz-adv-x="620" />
<glyph unicode="&#x2005;" horiz-adv-x="465" />
<glyph unicode="&#x2006;" horiz-adv-x="310" />
<glyph unicode="&#x2007;" horiz-adv-x="310" />
<glyph unicode="&#x2008;" horiz-adv-x="232" />
<glyph unicode="&#x2009;" horiz-adv-x="372" />
<glyph unicode="&#x200a;" horiz-adv-x="103" />
<glyph unicode="&#x2010;" horiz-adv-x="614" d="M61 385v221h492v-221h-492z" />
<glyph unicode="&#x2011;" horiz-adv-x="614" d="M61 385v221h492v-221h-492z" />
<glyph unicode="&#x2012;" horiz-adv-x="614" d="M61 385v221h492v-221h-492z" />
<glyph unicode="&#x2013;" horiz-adv-x="1214" d="M61 385v221h1092v-221h-1092z" />
<glyph unicode="&#x2014;" horiz-adv-x="1705" d="M61 385v221h1584v-221h-1584z" />
<glyph unicode="&#x2018;" horiz-adv-x="522" d="M291 1386l112 -90q-51 -27 -98.5 -83.5t-60.5 -110.5q9 6 41 6q59 0 99 -41t40 -106q0 -66 -48 -114t-114 -48q-76 0 -130 56.5t-54 152.5q0 113 57.5 211.5t155.5 166.5z" />
<glyph unicode="&#x2019;" horiz-adv-x="522" d="M229 797l-112 92q51 27 98 83.5t59 110.5q-12 -8 -38 -8q-59 0 -99.5 42t-40.5 106q0 67 47.5 115t112.5 48q76 0 130 -56t54 -152q0 -112 -57 -211.5t-154 -169.5z" />
<glyph unicode="&#x201a;" d="M229 -281l-112 93q51 27 98 83.5t59 108.5q-18 -6 -38 -6q-60 0 -100 41t-40 106q0 67 47.5 115.5t112.5 48.5q76 0 130 -56.5t54 -152.5q0 -112 -57 -211.5t-154 -169.5z" />
<glyph unicode="&#x201c;" horiz-adv-x="940" d="M293 1386l113 -90q-51 -27 -99 -83.5t-61 -110.5q9 6 41 6q59 0 99 -41t40 -106q0 -66 -48 -114t-114 -48q-76 0 -129 56.5t-53 152.5q0 113 56.5 211.5t154.5 166.5zM709 1386l114 -90q-52 -27 -99.5 -84t-59.5 -110q9 6 41 6q58 0 97.5 -41t39.5 -106q0 -66 -47.5 -114 t-114.5 -48q-75 0 -127.5 56.5t-52.5 152.5q0 113 56 212t153 166z" />
<glyph unicode="&#x201d;" horiz-adv-x="940" d="M229 797l-112 92q51 27 98 83.5t59 110.5q-12 -8 -38 -8q-59 0 -99.5 42t-40.5 106q0 67 47.5 115t112.5 48q76 0 130 -56t54 -152q0 -112 -57 -211.5t-154 -169.5zM645 797l-113 92q51 27 99 83.5t61 110.5q-16 -8 -41 -8q-59 0 -99 42t-40 106q0 67 48 115t114 48 q76 0 129 -56t53 -152q0 -113 -56.5 -212.5t-154.5 -168.5z" />
<glyph unicode="&#x201e;" horiz-adv-x="940" d="M229 -281l-112 93q51 27 98 83.5t59 108.5q-18 -6 -38 -6q-60 0 -100 41t-40 106q0 67 47.5 115.5t112.5 48.5q76 0 130 -56.5t54 -152.5q0 -112 -57 -211.5t-154 -169.5zM645 -281l-113 93q51 27 99 83t61 109q-24 -6 -41 -6q-59 0 -99 41t-40 106q0 67 48 115.5 t114 48.5q76 0 129 -56.5t53 -152.5q0 -113 -56.5 -212.5t-154.5 -168.5z" />
<glyph unicode="&#x2022;" horiz-adv-x="733" d="M369 254q-101 0 -172.5 71t-71.5 171q0 101 71.5 172t172.5 71t172 -71t71 -172q0 -100 -71 -171t-172 -71z" />
<glyph unicode="&#x2026;" horiz-adv-x="1572" d="M260 -20q-67 0 -115.5 48.5t-48.5 114.5q0 68 48.5 117t115.5 49q68 0 117 -49.5t49 -116.5q0 -66 -49.5 -114.5t-116.5 -48.5zM784 -20q-67 0 -115 48.5t-48 114.5q0 68 48 117t115 49q68 0 117 -49.5t49 -116.5q0 -66 -49.5 -114.5t-116.5 -48.5zM1309 -20 q-67 0 -115.5 48.5t-48.5 114.5q0 68 48.5 117t115.5 49t116.5 -49.5t49.5 -116.5q0 -66 -49.5 -114.5t-116.5 -48.5z" />
<glyph unicode="&#x202f;" horiz-adv-x="372" />
<glyph unicode="&#x2039;" horiz-adv-x="690" d="M389 129l-328 369l328 362h240l-328 -362l328 -369h-240z" />
<glyph unicode="&#x203a;" horiz-adv-x="690" d="M301 129h-240l328 369l-328 362h240l328 -362z" />
<glyph unicode="&#x205f;" horiz-adv-x="465" />
<glyph unicode="&#x20ac;" horiz-adv-x="1452" d="M844 233q103 0 190 56t129 143l252 -121q-194 -336 -571 -336q-251 0 -440.5 132.5t-256.5 355.5h-104v155h78q-4 40 -4 64t4 70h-78v153h107q67 221 256 352.5t438 131.5q108 0 201.5 -27.5t162 -76.5t118.5 -105.5t89 -124.5l-252 -123q-43 86 -129.5 142t-189.5 56 q-124 0 -222 -60t-151 -165h498v-153h-551q-2 -23 -2 -70q0 -44 2 -64h551v-155h-500q52 -106 151 -168t224 -62z" />
<glyph unicode="&#x2122;" horiz-adv-x="929" d="M219 1313v-398h-57v398h-127v53h311v-53h-127zM801 915v373l-154 -373h-16l-154 373v-373h-57v451h88l131 -328l131 328h88v-451h-57z" />
<glyph unicode="&#x25fc;" horiz-adv-x="993" d="M0 993h993v-993h-993v993z" />
<hkern g1="C,Ccedilla" 	g2="V" 	k="8" />
<hkern g1="C,Ccedilla" 	g2="W" 	k="14" />
<hkern g1="C,Ccedilla" 	g2="Y,Yacute,Ydieresis" 	k="47" />
<hkern g1="C,Ccedilla" 	g2="plus,divide" 	k="27" />
<hkern g1="C,Ccedilla" 	g2="question" 	k="14" />
<hkern g1="C,Ccedilla" 	g2="A,Agrave,Aacute,Acircumflex,Atilde,Adieresis,Aring,AE" 	k="14" />
<hkern g1="D,O,Q,Eth,Ograve,Oacute,Ocircumflex,Otilde,Odieresis,Oslash,Thorn" 	g2="J" 	k="41" />
<hkern g1="D,O,Q,Eth,Ograve,Oacute,Ocircumflex,Otilde,Odieresis,Oslash,Thorn" 	g2="T" 	k="49" />
<hkern g1="D,O,Q,Eth,Ograve,Oacute,Ocircumflex,Otilde,Odieresis,Oslash,Thorn" 	g2="V" 	k="41" />
<hkern g1="D,O,Q,Eth,Ograve,Oacute,Ocircumflex,Otilde,Odieresis,Oslash,Thorn" 	g2="W" 	k="41" />
<hkern g1="D,O,Q,Eth,Ograve,Oacute,Ocircumflex,Otilde,Odieresis,Oslash,Thorn" 	g2="Y,Yacute,Ydieresis" 	k="82" />
<hkern g1="D,O,Q,Eth,Ograve,Oacute,Ocircumflex,Otilde,Odieresis,Oslash,Thorn" 	g2="question" 	k="47" />
<hkern g1="D,O,Q,Eth,Ograve,Oacute,Ocircumflex,Otilde,Odieresis,Oslash,Thorn" 	g2="quotedbl,quotesingle,registered,quoteleft,quoteright,quotedblleft,quotedblright,trademark" 	k="20" />
<hkern g1="D,O,Q,Eth,Ograve,Oacute,Ocircumflex,Otilde,Odieresis,Oslash,Thorn" 	g2="A,Agrave,Aacute,Acircumflex,Atilde,Adieresis,Aring,AE" 	k="70" />
<hkern g1="D,O,Q,Eth,Ograve,Oacute,Ocircumflex,Otilde,Odieresis,Oslash,Thorn" 	g2="X" 	k="61" />
<hkern g1="D,O,Q,Eth,Ograve,Oacute,Ocircumflex,Otilde,Odieresis,Oslash,Thorn" 	g2="Z" 	k="29" />
<hkern g1="D,O,Q,Eth,Ograve,Oacute,Ocircumflex,Otilde,Odieresis,Oslash,Thorn" 	g2="comma,period,quotesinglbase,quotedblbase,ellipsis" 	k="49" />
<hkern g1="F" 	g2="J" 	k="143" />
<hkern g1="F" 	g2="A,Agrave,Aacute,Acircumflex,Atilde,Adieresis,Aring,AE" 	k="88" />
<hkern g1="F" 	g2="comma,period,quotesinglbase,quotedblbase,ellipsis" 	k="102" />
<hkern g1="F" 	g2="ampersand" 	k="27" />
<hkern g1="G" 	g2="T" 	k="14" />
<hkern g1="G" 	g2="V" 	k="27" />
<hkern g1="G" 	g2="W" 	k="14" />
<hkern g1="G" 	g2="Y,Yacute,Ydieresis" 	k="41" />
<hkern g1="G" 	g2="question" 	k="27" />
<hkern g1="G" 	g2="A,Agrave,Aacute,Acircumflex,Atilde,Adieresis,Aring,AE" 	k="14" />
<hkern g1="G" 	g2="X" 	k="14" />
<hkern g1="K" 	g2="C,G,O,Q,Ccedilla,Ograve,Oacute,Ocircumflex,Otilde,Odieresis,Oslash,OE" 	k="82" />
<hkern g1="K" 	g2="Y,Yacute,Ydieresis" 	k="23" />
<hkern g1="K" 	g2="f,uniFB01,uniFB02,uniFB03,uniFB04" 	k="68" />
<hkern g1="K" 	g2="plus,divide" 	k="143" />
<hkern g1="K" 	g2="t" 	k="102" />
<hkern g1="K" 	g2="u,uni00B5,uacute" 	k="41" />
<hkern g1="K" 	g2="v" 	k="123" />
<hkern g1="K" 	g2="w" 	k="82" />
<hkern g1="K" 	g2="y,yacute,ydieresis" 	k="123" />
<hkern g1="K" 	g2="a,aacute,ae" 	k="29" />
<hkern g1="K" 	g2="c,d,e,g,o,q,cent,ccedilla,egrave,eacute,ecircumflex,edieresis,oacute,oe" 	k="55" />
<hkern g1="K" 	g2="hyphen,periodcentered,endash,emdash" 	k="102" />
<hkern g1="K" 	g2="x" 	k="68" />
<hkern g1="K" 	g2="s" 	k="43" />
<hkern g1="L" 	g2="C,G,O,Q,Ccedilla,Ograve,Oacute,Ocircumflex,Otilde,Odieresis,Oslash,OE" 	k="55" />
<hkern g1="L" 	g2="T" 	k="205" />
<hkern g1="L" 	g2="U,Ugrave,Uacute,Ucircumflex,Udieresis" 	k="49" />
<hkern g1="L" 	g2="V" 	k="184" />
<hkern g1="L" 	g2="W" 	k="150" />
<hkern g1="L" 	g2="Y,Yacute,Ydieresis" 	k="260" />
<hkern g1="L" 	g2="asterisk" 	k="342" />
<hkern g1="L" 	g2="plus,divide" 	k="152" />
<hkern g1="L" 	g2="question" 	k="219" />
<hkern g1="L" 	g2="quotedbl,quotesingle,registered,quoteleft,quoteright,quotedblleft,quotedblright,trademark" 	k="279" />
<hkern g1="L" 	g2="t" 	k="76" />
<hkern g1="L" 	g2="u,uni00B5,uacute" 	k="14" />
<hkern g1="L" 	g2="v" 	k="111" />
<hkern g1="L" 	g2="w" 	k="70" />
<hkern g1="L" 	g2="y,yacute,ydieresis" 	k="111" />
<hkern g1="L" 	g2="ampersand" 	k="8" />
<hkern g1="L" 	g2="a,aacute,ae" 	k="14" />
<hkern g1="L" 	g2="c,d,e,g,o,q,cent,ccedilla,egrave,eacute,ecircumflex,edieresis,oacute,oe" 	k="23" />
<hkern g1="P" 	g2="J" 	k="246" />
<hkern g1="P" 	g2="Y,Yacute,Ydieresis" 	k="14" />
<hkern g1="P" 	g2="A,Agrave,Aacute,Acircumflex,Atilde,Adieresis,Aring,AE" 	k="152" />
<hkern g1="P" 	g2="X" 	k="55" />
<hkern g1="P" 	g2="comma,period,quotesinglbase,quotedblbase,ellipsis" 	k="178" />
<hkern g1="P" 	g2="ampersand" 	k="68" />
<hkern g1="P" 	g2="a,aacute,ae" 	k="41" />
<hkern g1="P" 	g2="c,d,e,g,o,q,cent,ccedilla,egrave,eacute,ecircumflex,edieresis,oacute,oe" 	k="35" />
<hkern g1="P" 	g2="hyphen,periodcentered,endash,emdash" 	k="55" />
<hkern g1="R" 	g2="T" 	k="20" />
<hkern g1="R" 	g2="V" 	k="20" />
<hkern g1="R" 	g2="Y,Yacute,Ydieresis" 	k="37" />
<hkern g1="R" 	g2="quotedbl,quotesingle,registered,quoteleft,quoteright,quotedblleft,quotedblright,trademark" 	k="14" />
<hkern g1="R" 	g2="ampersand" 	k="14" />
<hkern g1="R" 	g2="a,aacute,ae" 	k="41" />
<hkern g1="R" 	g2="c,d,e,g,o,q,cent,ccedilla,egrave,eacute,ecircumflex,edieresis,oacute,oe" 	k="61" />
<hkern g1="R" 	g2="s" 	k="27" />
<hkern g1="T" 	g2="C,G,O,Q,Ccedilla,Ograve,Oacute,Ocircumflex,Otilde,Odieresis,Oslash,OE" 	k="49" />
<hkern g1="T" 	g2="J" 	k="178" />
<hkern g1="T" 	g2="f,uniFB01,uniFB02,uniFB03,uniFB04" 	k="43" />
<hkern g1="T" 	g2="plus,divide" 	k="102" />
<hkern g1="T" 	g2="u,uni00B5,uacute" 	k="139" />
<hkern g1="T" 	g2="v" 	k="57" />
<hkern g1="T" 	g2="w" 	k="57" />
<hkern g1="T" 	g2="y,yacute,ydieresis" 	k="115" />
<hkern g1="T" 	g2="dollar,three,five,eight,S" 	k="14" />
<hkern g1="T" 	g2="A,Agrave,Aacute,Acircumflex,Atilde,Adieresis,Aring,AE" 	k="131" />
<hkern g1="T" 	g2="comma,period,quotesinglbase,quotedblbase,ellipsis" 	k="199" />
<hkern g1="T" 	g2="ampersand" 	k="111" />
<hkern g1="T" 	g2="a,aacute,ae" 	k="160" />
<hkern g1="T" 	g2="c,d,e,g,o,q,cent,ccedilla,egrave,eacute,ecircumflex,edieresis,oacute,oe" 	k="201" />
<hkern g1="T" 	g2="hyphen,periodcentered,endash,emdash" 	k="123" />
<hkern g1="T" 	g2="x" 	k="121" />
<hkern g1="T" 	g2="s" 	k="166" />
<hkern g1="T" 	g2="colon,semicolon" 	k="102" />
<hkern g1="T" 	g2="m,n,p,r,z,ntilde" 	k="139" />
<hkern g1="J,U,Ugrave,Uacute,Ucircumflex,Udieresis" 	g2="J" 	k="53" />
<hkern g1="J,U,Ugrave,Uacute,Ucircumflex,Udieresis" 	g2="A,Agrave,Aacute,Acircumflex,Atilde,Adieresis,Aring,AE" 	k="68" />
<hkern g1="J,U,Ugrave,Uacute,Ucircumflex,Udieresis" 	g2="comma,period,quotesinglbase,quotedblbase,ellipsis" 	k="61" />
<hkern g1="V" 	g2="C,G,O,Q,Ccedilla,Ograve,Oacute,Ocircumflex,Otilde,Odieresis,Oslash,OE" 	k="41" />
<hkern g1="V" 	g2="J" 	k="270" />
<hkern g1="V" 	g2="f,uniFB01,uniFB02,uniFB03,uniFB04" 	k="55" />
<hkern g1="V" 	g2="plus,divide" 	k="61" />
<hkern g1="V" 	g2="t" 	k="35" />
<hkern g1="V" 	g2="u,uni00B5,uacute" 	k="115" />
<hkern g1="V" 	g2="v" 	k="35" />
<hkern g1="V" 	g2="w" 	k="27" />
<hkern g1="V" 	g2="y,yacute,ydieresis" 	k="27" />
<hkern g1="V" 	g2="dollar,three,five,eight,S" 	k="29" />
<hkern g1="V" 	g2="A,Agrave,Aacute,Acircumflex,Atilde,Adieresis,Aring,AE" 	k="96" />
<hkern g1="V" 	g2="X" 	k="14" />
<hkern g1="V" 	g2="comma,period,quotesinglbase,quotedblbase,ellipsis" 	k="184" />
<hkern g1="V" 	g2="ampersand" 	k="82" />
<hkern g1="V" 	g2="a,aacute,ae" 	k="137" />
<hkern g1="V" 	g2="c,d,e,g,o,q,cent,ccedilla,egrave,eacute,ecircumflex,edieresis,oacute,oe" 	k="123" />
<hkern g1="V" 	g2="hyphen,periodcentered,endash,emdash" 	k="117" />
<hkern g1="V" 	g2="x" 	k="55" />
<hkern g1="V" 	g2="s" 	k="102" />
<hkern g1="V" 	g2="m,n,p,r,z,ntilde" 	k="115" />
<hkern g1="W" 	g2="C,G,O,Q,Ccedilla,Ograve,Oacute,Ocircumflex,Otilde,Odieresis,Oslash,OE" 	k="41" />
<hkern g1="W" 	g2="J" 	k="121" />
<hkern g1="W" 	g2="f,uniFB01,uniFB02,uniFB03,uniFB04" 	k="35" />
<hkern g1="W" 	g2="plus,divide" 	k="14" />
<hkern g1="W" 	g2="t" 	k="35" />
<hkern g1="W" 	g2="u,uni00B5,uacute" 	k="61" />
<hkern g1="W" 	g2="v" 	k="14" />
<hkern g1="W" 	g2="y,yacute,ydieresis" 	k="14" />
<hkern g1="W" 	g2="A,Agrave,Aacute,Acircumflex,Atilde,Adieresis,Aring,AE" 	k="90" />
<hkern g1="W" 	g2="comma,period,quotesinglbase,quotedblbase,ellipsis" 	k="131" />
<hkern g1="W" 	g2="ampersand" 	k="41" />
<hkern g1="W" 	g2="a,aacute,ae" 	k="82" />
<hkern g1="W" 	g2="c,d,e,g,o,q,cent,ccedilla,egrave,eacute,ecircumflex,edieresis,oacute,oe" 	k="82" />
<hkern g1="W" 	g2="hyphen,periodcentered,endash,emdash" 	k="76" />
<hkern g1="W" 	g2="x" 	k="55" />
<hkern g1="W" 	g2="s" 	k="61" />
<hkern g1="W" 	g2="m,n,p,r,z,ntilde" 	k="61" />
<hkern g1="X" 	g2="C,G,O,Q,Ccedilla,Ograve,Oacute,Ocircumflex,Otilde,Odieresis,Oslash,OE" 	k="61" />
<hkern g1="X" 	g2="f,uniFB01,uniFB02,uniFB03,uniFB04" 	k="61" />
<hkern g1="X" 	g2="plus,divide" 	k="152" />
<hkern g1="X" 	g2="t" 	k="61" />
<hkern g1="X" 	g2="v" 	k="70" />
<hkern g1="X" 	g2="w" 	k="76" />
<hkern g1="X" 	g2="y,yacute,ydieresis" 	k="70" />
<hkern g1="X" 	g2="c,d,e,g,o,q,cent,ccedilla,egrave,eacute,ecircumflex,edieresis,oacute,oe" 	k="12" />
<hkern g1="X" 	g2="hyphen,periodcentered,endash,emdash" 	k="96" />
<hkern g1="Y,Yacute,Ydieresis" 	g2="C,G,O,Q,Ccedilla,Ograve,Oacute,Ocircumflex,Otilde,Odieresis,Oslash,OE" 	k="82" />
<hkern g1="Y,Yacute,Ydieresis" 	g2="J" 	k="240" />
<hkern g1="Y,Yacute,Ydieresis" 	g2="f,uniFB01,uniFB02,uniFB03,uniFB04" 	k="123" />
<hkern g1="Y,Yacute,Ydieresis" 	g2="plus,divide" 	k="193" />
<hkern g1="Y,Yacute,Ydieresis" 	g2="t" 	k="68" />
<hkern g1="Y,Yacute,Ydieresis" 	g2="u,uni00B5,uacute" 	k="184" />
<hkern g1="Y,Yacute,Ydieresis" 	g2="v" 	k="123" />
<hkern g1="Y,Yacute,Ydieresis" 	g2="w" 	k="123" />
<hkern g1="Y,Yacute,Ydieresis" 	g2="y,yacute,ydieresis" 	k="123" />
<hkern g1="Y,Yacute,Ydieresis" 	g2="dollar,three,five,eight,S" 	k="41" />
<hkern g1="Y,Yacute,Ydieresis" 	g2="A,Agrave,Aacute,Acircumflex,Atilde,Adieresis,Aring,AE" 	k="137" />
<hkern g1="Y,Yacute,Ydieresis" 	g2="comma,period,quotesinglbase,quotedblbase,ellipsis" 	k="184" />
<hkern g1="Y,Yacute,Ydieresis" 	g2="ampersand" 	k="123" />
<hkern g1="Y,Yacute,Ydieresis" 	g2="a,aacute,ae" 	k="227" />
<hkern g1="Y,Yacute,Ydieresis" 	g2="c,d,e,g,o,q,cent,ccedilla,egrave,eacute,ecircumflex,edieresis,oacute,oe" 	k="254" />
<hkern g1="Y,Yacute,Ydieresis" 	g2="hyphen,periodcentered,endash,emdash" 	k="252" />
<hkern g1="Y,Yacute,Ydieresis" 	g2="x" 	k="158" />
<hkern g1="Y,Yacute,Ydieresis" 	g2="s" 	k="205" />
<hkern g1="Y,Yacute,Ydieresis" 	g2="colon,semicolon" 	k="143" />
<hkern g1="Y,Yacute,Ydieresis" 	g2="m,n,p,r,z,ntilde" 	k="184" />
<hkern g1="Z" 	g2="C,G,O,Q,Ccedilla,Ograve,Oacute,Ocircumflex,Otilde,Odieresis,Oslash,OE" 	k="29" />
<hkern g1="Z" 	g2="plus,divide" 	k="117" />
<hkern g1="dollar,five,six,S" 	g2="T" 	k="14" />
<hkern g1="dollar,five,six,S" 	g2="Y,Yacute,Ydieresis" 	k="14" />
<hkern g1="dollar,five,six,S" 	g2="A,Agrave,Aacute,Acircumflex,Atilde,Adieresis,Aring,AE" 	k="14" />
<hkern g1="dollar,five,six,S" 	g2="t" 	k="23" />
<hkern g1="dollar,five,six,S" 	g2="v" 	k="14" />
<hkern g1="dollar,five,six,S" 	g2="w" 	k="8" />
<hkern g1="dollar,five,six,S" 	g2="x" 	k="23" />
<hkern g1="dollar,five,six,S" 	g2="y,yacute,ydieresis" 	k="14" />
<hkern g1="b,o,p,ograve,oslash,thorn" 	g2="T" 	k="201" />
<hkern g1="b,o,p,ograve,oslash,thorn" 	g2="V" 	k="123" />
<hkern g1="b,o,p,ograve,oslash,thorn" 	g2="W" 	k="82" />
<hkern g1="b,o,p,ograve,oslash,thorn" 	g2="Y,Yacute,Ydieresis" 	k="240" />
<hkern g1="b,o,p,ograve,oslash,thorn" 	g2="question" 	k="109" />
<hkern g1="b,o,p,ograve,oslash,thorn" 	g2="quotedbl,quotesingle,registered,quoteleft,quoteright,quotedblleft,quotedblright,trademark" 	k="20" />
<hkern g1="b,o,p,ograve,oslash,thorn" 	g2="x" 	k="49" />
<hkern g1="b,o,p,ograve,oslash,thorn" 	g2="comma,period,quotesinglbase,quotedblbase,ellipsis" 	k="8" />
<hkern g1="c,cent,ccedilla" 	g2="T" 	k="145" />
<hkern g1="c,cent,ccedilla" 	g2="V" 	k="88" />
<hkern g1="c,cent,ccedilla" 	g2="W" 	k="55" />
<hkern g1="c,cent,ccedilla" 	g2="Y,Yacute,Ydieresis" 	k="137" />
<hkern g1="c,cent,ccedilla" 	g2="question" 	k="55" />
<hkern g1="c,cent,ccedilla" 	g2="quotedbl,quotesingle,registered,quoteleft,quoteright,quotedblleft,quotedblright,trademark" 	k="14" />
<hkern g1="e,ae,egrave,eacute,ecircumflex,edieresis,oe" 	g2="T" 	k="186" />
<hkern g1="e,ae,egrave,eacute,ecircumflex,edieresis,oe" 	g2="V" 	k="117" />
<hkern g1="e,ae,egrave,eacute,ecircumflex,edieresis,oe" 	g2="W" 	k="82" />
<hkern g1="e,ae,egrave,eacute,ecircumflex,edieresis,oe" 	g2="Y,Yacute,Ydieresis" 	k="225" />
<hkern g1="e,ae,egrave,eacute,ecircumflex,edieresis,oe" 	g2="question" 	k="88" />
<hkern g1="e,ae,egrave,eacute,ecircumflex,edieresis,oe" 	g2="quotedbl,quotesingle,registered,quoteleft,quoteright,quotedblleft,quotedblright,trademark" 	k="14" />
<hkern g1="e,ae,egrave,eacute,ecircumflex,edieresis,oe" 	g2="x" 	k="70" />
<hkern g1="e,ae,egrave,eacute,ecircumflex,edieresis,oe" 	g2="comma,period,quotesinglbase,quotedblbase,ellipsis" 	k="8" />
<hkern g1="e,ae,egrave,eacute,ecircumflex,edieresis,oe" 	g2="asterisk" 	k="29" />
<hkern g1="f" 	g2="T" 	k="-41" />
<hkern g1="f" 	g2="V" 	k="-76" />
<hkern g1="f" 	g2="W" 	k="-70" />
<hkern g1="f" 	g2="Y,Yacute,Ydieresis" 	k="-61" />
<hkern g1="f" 	g2="question" 	k="-49" />
<hkern g1="f" 	g2="quotedbl,quotesingle,registered,quoteleft,quoteright,quotedblleft,quotedblright,trademark" 	k="-82" />
<hkern g1="f" 	g2="comma,period,quotesinglbase,quotedblbase,ellipsis" 	k="96" />
<hkern g1="f" 	g2="asterisk" 	k="-90" />
<hkern g1="f" 	g2="X" 	k="-20" />
<hkern g1="f" 	g2="ampersand" 	k="14" />
<hkern g1="f" 	g2="parenright,bracketright,braceright" 	k="-76" />
<hkern g1="g,j,q" 	g2="T" 	k="139" />
<hkern g1="g,j,q" 	g2="V" 	k="115" />
<hkern g1="g,j,q" 	g2="W" 	k="61" />
<hkern g1="g,j,q" 	g2="Y,Yacute,Ydieresis" 	k="184" />
<hkern g1="g,j,q" 	g2="question" 	k="55" />
<hkern g1="k" 	g2="T" 	k="92" />
<hkern g1="k" 	g2="V" 	k="55" />
<hkern g1="k" 	g2="W" 	k="55" />
<hkern g1="k" 	g2="Y,Yacute,Ydieresis" 	k="150" />
<hkern g1="k" 	g2="bullet" 	k="49" />
<hkern g1="k" 	g2="c,d,e,g,o,q,cent,ccedilla,egrave,eacute,ecircumflex,edieresis,oacute,oe" 	k="43" />
<hkern g1="k" 	g2="hyphen,periodcentered,endash,emdash" 	k="49" />
<hkern g1="k" 	g2="s" 	k="14" />
<hkern g1="r" 	g2="T" 	k="70" />
<hkern g1="r" 	g2="V" 	k="55" />
<hkern g1="r" 	g2="W" 	k="27" />
<hkern g1="r" 	g2="Y,Yacute,Ydieresis" 	k="102" />
<hkern g1="r" 	g2="comma,period,quotesinglbase,quotedblbase,ellipsis" 	k="178" />
<hkern g1="r" 	g2="X" 	k="41" />
<hkern g1="s" 	g2="T" 	k="115" />
<hkern g1="s" 	g2="V" 	k="66" />
<hkern g1="s" 	g2="W" 	k="66" />
<hkern g1="s" 	g2="Y,Yacute,Ydieresis" 	k="137" />
<hkern g1="s" 	g2="question" 	k="66" />
<hkern g1="s" 	g2="quotedbl,quotesingle,registered,quoteleft,quoteright,quotedblleft,quotedblright,trademark" 	k="29" />
<hkern g1="s" 	g2="X" 	k="8" />
<hkern g1="t" 	g2="T" 	k="63" />
<hkern g1="t" 	g2="V" 	k="68" />
<hkern g1="t" 	g2="W" 	k="35" />
<hkern g1="t" 	g2="Y,Yacute,Ydieresis" 	k="76" />
<hkern g1="u,z,uni00B5" 	g2="T" 	k="139" />
<hkern g1="u,z,uni00B5" 	g2="V" 	k="115" />
<hkern g1="u,z,uni00B5" 	g2="W" 	k="61" />
<hkern g1="u,z,uni00B5" 	g2="Y,Yacute,Ydieresis" 	k="184" />
<hkern g1="u,z,uni00B5" 	g2="question" 	k="55" />
<hkern g1="v" 	g2="T" 	k="57" />
<hkern g1="v" 	g2="V" 	k="35" />
<hkern g1="v" 	g2="W" 	k="14" />
<hkern g1="v" 	g2="Y,Yacute,Ydieresis" 	k="123" />
<hkern g1="v" 	g2="comma,period,quotesinglbase,quotedblbase,ellipsis" 	k="131" />
<hkern g1="v" 	g2="X" 	k="70" />
<hkern g1="v" 	g2="A,Agrave,Aacute,Acircumflex,Atilde,Adieresis,Aring,AE" 	k="41" />
<hkern g1="w" 	g2="T" 	k="57" />
<hkern g1="w" 	g2="V" 	k="27" />
<hkern g1="w" 	g2="Y,Yacute,Ydieresis" 	k="123" />
<hkern g1="w" 	g2="comma,period,quotesinglbase,quotedblbase,ellipsis" 	k="76" />
<hkern g1="w" 	g2="X" 	k="76" />
<hkern g1="w" 	g2="A,Agrave,Aacute,Acircumflex,Atilde,Adieresis,Aring,AE" 	k="29" />
<hkern g1="x" 	g2="T" 	k="78" />
<hkern g1="x" 	g2="V" 	k="55" />
<hkern g1="x" 	g2="W" 	k="55" />
<hkern g1="x" 	g2="Y,Yacute,Ydieresis" 	k="158" />
<hkern g1="x" 	g2="c,d,e,g,o,q,cent,ccedilla,egrave,eacute,ecircumflex,edieresis,oacute,oe" 	k="49" />
<hkern g1="y,yacute,ydieresis" 	g2="T" 	k="57" />
<hkern g1="y,yacute,ydieresis" 	g2="V" 	k="27" />
<hkern g1="y,yacute,ydieresis" 	g2="W" 	k="14" />
<hkern g1="y,yacute,ydieresis" 	g2="Y,Yacute,Ydieresis" 	k="123" />
<hkern g1="y,yacute,ydieresis" 	g2="question" 	k="14" />
<hkern g1="y,yacute,ydieresis" 	g2="comma,period,quotesinglbase,quotedblbase,ellipsis" 	k="111" />
<hkern g1="y,yacute,ydieresis" 	g2="X" 	k="70" />
<hkern g1="y,yacute,ydieresis" 	g2="A,Agrave,Aacute,Acircumflex,Atilde,Adieresis,Aring,AE" 	k="41" />
<hkern g1="eth" 	g2="comma,period,quotesinglbase,quotedblbase,ellipsis" 	k="8" />
<hkern g1="parenleft,bracketleft,braceleft" 	g2="j" 	k="-111" />
<hkern g1="colon,semicolon" 	g2="T" 	k="102" />
<hkern g1="colon,semicolon" 	g2="Y,Yacute,Ydieresis" 	k="143" />
<hkern g1="plus,divide" 	g2="A,Agrave,Aacute,Acircumflex,Atilde,Adieresis,Aring,AE" 	k="90" />
<hkern g1="plus,divide" 	g2="J" 	k="131" />
<hkern g1="plus,divide" 	g2="T" 	k="102" />
<hkern g1="plus,divide" 	g2="V" 	k="61" />
<hkern g1="plus,divide" 	g2="W" 	k="14" />
<hkern g1="plus,divide" 	g2="X" 	k="152" />
<hkern g1="plus,divide" 	g2="Y,Yacute,Ydieresis" 	k="193" />
<hkern g1="plus,divide" 	g2="Z" 	k="117" />
<hkern g1="hyphen,periodcentered,endash,emdash" 	g2="V" 	k="117" />
<hkern g1="hyphen,periodcentered,endash,emdash" 	g2="W" 	k="76" />
<hkern g1="hyphen,periodcentered,endash,emdash" 	g2="X" 	k="96" />
<hkern g1="hyphen,periodcentered,endash,emdash" 	g2="Y,Yacute,Ydieresis" 	k="246" />
<hkern g1="comma,period,quotesinglbase,quotedblbase,ellipsis" 	g2="j" 	k="-82" />
<hkern g1="comma,period,quotesinglbase,quotedblbase,ellipsis" 	g2="T" 	k="199" />
<hkern g1="comma,period,quotesinglbase,quotedblbase,ellipsis" 	g2="V" 	k="172" />
<hkern g1="comma,period,quotesinglbase,quotedblbase,ellipsis" 	g2="W" 	k="131" />
<hkern g1="comma,period,quotesinglbase,quotedblbase,ellipsis" 	g2="Y,Yacute,Ydieresis" 	k="184" />
<hkern g1="comma,period,quotesinglbase,quotedblbase,ellipsis" 	g2="U,Ugrave,Uacute,Ucircumflex,Udieresis" 	k="61" />
<hkern g1="comma,period,quotesinglbase,quotedblbase,ellipsis" 	g2="f,uniFB01,uniFB02,uniFB03,uniFB04" 	k="55" />
<hkern g1="comma,period,quotesinglbase,quotedblbase,ellipsis" 	g2="t" 	k="55" />
<hkern g1="comma,period,quotesinglbase,quotedblbase,ellipsis" 	g2="v" 	k="131" />
<hkern g1="comma,period,quotesinglbase,quotedblbase,ellipsis" 	g2="w" 	k="76" />
<hkern g1="comma,period,quotesinglbase,quotedblbase,ellipsis" 	g2="y,yacute,ydieresis" 	k="111" />
<hkern g1="comma,period,quotesinglbase,quotedblbase,ellipsis" 	g2="c,d,e,g,o,q,cent,ccedilla,egrave,eacute,ecircumflex,edieresis,oacute,oe" 	k="8" />
<hkern g1="questiondown" 	g2="j" 	k="-213" />
<hkern g1="quotedbl,quotesingle,quoteleft,quoteright,quotedblleft,quotedblright" 	g2="A,Agrave,Aacute,Acircumflex,Atilde,Adieresis,Aring,AE" 	k="199" />
<hkern g1="quotedbl,quotesingle,quoteleft,quoteright,quotedblleft,quotedblright" 	g2="J" 	k="217" />
<hkern g1="quotedbl,quotesingle,quoteleft,quoteright,quotedblleft,quotedblright" 	g2="C,G,O,Q,Ccedilla,Ograve,Oacute,Ocircumflex,Otilde,Odieresis,Oslash,OE" 	k="14" />
<hkern g1="quotedbl,quotesingle,quoteleft,quoteright,quotedblleft,quotedblright" 	g2="s" 	k="61" />
<hkern g1="seven" 	g2="comma,period,quotesinglbase,quotedblbase,ellipsis" 	k="193" />
<hkern g1="zero,nine" 	g2="comma,period,quotesinglbase,quotedblbase,ellipsis" 	k="43" />
<hkern g1="quotedbl,quotesingle,quoteleft,quoteright,quotedblleft,quotedblright" 	g2="comma,period,quotesinglbase,quotedblbase,ellipsis" 	k="170" />
</font>
</defs></svg> 